[
    {
        "domain": ".youtube.com",
        "expirationDate": 1709431899.89724,
        "hostOnly": false,
        "httpOnly": true,
        "name": "__Secure-3PSID",
        "path": "/",
        "sameSite": "no_restriction",
        "secure": true,
        "session": false,
        "storeId": null,
        "value": "HwgRtixdi_lYMwY3u67NS-kWWBG4FxL8B_ej12__c5QC76SVSK5Lmuac56qlDhzCQcKrTg."
    },
    {
        "domain": ".youtube.com",
        "expirationDate": 1677897298.99776,
        "hostOnly": false,
        "httpOnly": false,
        "name": "SIDCC",
        "path": "/",
        "sameSite": null,
        "secure": false,
        "session": false,
        "storeId": null,
        "value": "AJi4QfEtL5iAYwYHk7yrYRWwRPEbHM8jOhnSZfiHa2pixXK_yfwsm76aLp7544wXpjx5hGVx8w"
    },
    {
        "domain": ".youtube.com",
        "hostOnly": false,
        "httpOnly": true,
        "name": "YSC",
        "path": "/",
        "sameSite": "no_restriction",
        "secure": true,
        "session": true,
        "storeId": null,
        "value": "7bCrfqxO6dc"
    },
    {
        "domain": ".youtube.com",
        "expirationDate": 1709431899.896898,
        "hostOnly": false,
        "httpOnly": false,
        "name": "SID",
        "path": "/",
        "sameSite": null,
        "secure": false,
        "session": false,
        "storeId": null,
        "value": "HwgRtixdi_lYMwY3u67NS-kWWBG4FxL8B_ej12__c5QC76SVLjGje2JfspM3KuYH7ynMgw."
    },
    {
        "domain": ".youtube.com",
        "expirationDate": 1709431899.897657,
        "hostOnly": false,
        "httpOnly": false,
        "name": "SAPISID",
        "path": "/",
        "sameSite": null,
        "secure": true,
        "session": false,
        "storeId": null,
        "value": "iJPIJ5thxW1HFuDU/AIOpHFponbbFStLx4"
    },
    {
        "domain": ".youtube.com",
        "expirationDate": 1709431899.897448,
        "hostOnly": false,
        "httpOnly": true,
        "name": "SSID",
        "path": "/",
        "sameSite": null,
        "secure": true,
        "session": false,
        "storeId": null,
        "value": "A4T6vgb3U3tilYJGf"
    },
    {
        "domain": ".youtube.com",
        "expirationDate": 1709431899.897747,
        "hostOnly": false,
        "httpOnly": false,
        "name": "__Secure-1PAPISID",
        "path": "/",
        "sameSite": null,
        "secure": true,
        "session": false,
        "storeId": null,
        "value": "iJPIJ5thxW1HFuDU/AIOpHFponbbFStLx4"
    },
    {
        "domain": ".youtube.com",
        "expirationDate": 1709431899.897103,
        "hostOnly": false,
        "httpOnly": true,
        "name": "__Secure-1PSID",
        "path": "/",
        "sameSite": null,
        "secure": true,
        "session": false,
        "storeId": null,
        "value": "HwgRtixdi_lYMwY3u67NS-kWWBG4FxL8B_ej12__c5QC76SVmbXO42zz87zHgeEwsk7Z4g."
    },
    {
        "domain": ".youtube.com",
        "expirationDate": 1709431899.897845,
        "hostOnly": false,
        "httpOnly": false,
        "name": "__Secure-3PAPISID",
        "path": "/",
        "sameSite": "no_restriction",
        "secure": true,
        "session": false,
        "storeId": null,
        "value": "iJPIJ5thxW1HFuDU/AIOpHFponbbFStLx4"
    },
    {
        "domain": ".youtube.com",
        "expirationDate": 1677897298.997873,
        "hostOnly": false,
        "httpOnly": true,
        "name": "__Secure-3PSIDCC",
        "path": "/",
        "sameSite": "no_restriction",
        "secure": true,
        "session": false,
        "storeId": null,
        "value": "AJi4QfHhlQqhahmUoJO-32cW3yeVva5tXVEee8swi17YuOqG8qoItztBMpzHJvP3tZEtxhCLdoc"
    },
    {
        "domain": ".youtube.com",
        "expirationDate": 1709431899.897562,
        "hostOnly": false,
        "httpOnly": false,
        "name": "APISID",
        "path": "/",
        "sameSite": null,
        "secure": false,
        "session": false,
        "storeId": null,
        "value": "CgVlNjquZaIJxQDX/Ae4VX8bSNODcdX4_X"
    },
    {
        "domain": ".youtube.com",
        "expirationDate": 1709431899.897352,
        "hostOnly": false,
        "httpOnly": true,
        "name": "HSID",
        "path": "/",
        "sameSite": null,
        "secure": false,
        "session": false,
        "storeId": null,
        "value": "AASFN5Ycl-m_s6Cq7"
    },
    {
        "domain": ".youtube.com",
        "expirationDate": 1709431952.980857,
        "hostOnly": false,
        "httpOnly": true,
        "name": "LOGIN_INFO",
        "path": "/",
        "sameSite": "no_restriction",
        "secure": true,
        "session": false,
        "storeId": null,
        "value": "AFmmF2swRAIgbWAi4Ye2GEdoZUMPaVlzz9HEDB-7aD8CM4Lu8TVKrAICIEvLigG5Dc_dlcPaUViHU5iSS0-MqEZs5g-afZx-owxB:QUQ3MjNmemRHNTlWdDROU0dmTmhDMm1SQUhFb3lvdER4SERUMWZGT0hLOFlFTHZLSllQc3RfUEI2VmNKU2NmWjI1UERYRWdsakM4aEtjVDdibUtyY2JNamJqWndWSmJmOWNSLTJCVV9VOEhEMkFoWE1fZ3V0OFNWZnpQMkIxQmd5WWZ2b1RPNVVVaV9ETEtZSV9NejIwR1VmaVNQYzRRaTFB"
    },
    {
        "domain": ".youtube.com",
        "expirationDate": 1709431959,
        "hostOnly": false,
        "httpOnly": false,
        "name": "PREF",
        "path": "/",
        "sameSite": null,
        "secure": true,
        "session": false,
        "storeId": null,
        "value": "tz=Asia.Bangkok&f6=40000000&hl=en"
    },
    {
        "domain": ".youtube.com",
        "expirationDate": 1659145239.789707,
        "hostOnly": false,
        "httpOnly": true,
        "name": "VISITOR_INFO1_LIVE",
        "path": "/",
        "sameSite": "no_restriction",
        "secure": true,
        "session": false,
        "storeId": null,
        "value": "cxYCjODhJIc"
    }
]