{
	"setting":[{
		"chromedriver": "C:\\python\\chromedriver.exe",
		"file_upload": "upload.txt",
		"start":1,
		"laporan_file": "laporan.txt",
		"jeda_upload":120,
		"thumnail_yt": "D:\\Learn Bot uploa\\thumnail_wonosobo.jpg",
		"cookies": "D:\\Learn Bot upload\\akun2.json"

	}],
	"schedule" : [{
		"status" : false,
		"random_hari" : 30

	}]
}