('D:\\Learn Bot upload\\dist\\BotUploadYoutube.exe',
 True,
 False,
 False,
 'C:\\Users\\kvn\\AppData\\Local\\Programs\\Python\\Python310\\lib\\site-packages\\PyInstaller\\bootloader\\images\\icon-console.ico',
 None,
 False,
 False,
 '<?xml version="1.0" encoding="UTF-8" standalone="yes"?><assembly xmlns="urn:schemas-microsoft-com:asm.v1" manifestVersion="1.0"><assemblyIdentity type="win32" name="BotUploadYoutube" processorArchitecture="amd64" version="1.0.0.0"/><trustInfo xmlns="urn:schemas-microsoft-com:asm.v3"><security><requestedPrivileges><requestedExecutionLevel level="asInvoker" uiAccess="false"/></requestedPrivileges></security></trustInfo><dependency><dependentAssembly><assemblyIdentity type="win32" name="Microsoft.Windows.Common-Controls" language="*" processorArchitecture="*" version="6.0.0.0" publicKeyToken="6595b64144ccf1df"/></dependentAssembly></dependency><compatibility xmlns="urn:schemas-microsoft-com:compatibility.v1"><application><supportedOS Id="{e2011457-1546-43c5-a5fe-008deee3d3f0}"/><supportedOS Id="{35138b9a-5d96-4fbd-8e2d-a2440225f93a}"/><supportedOS Id="{4a2f28e3-53b9-4441-ba9c-d69d4a4a6e38}"/><supportedOS Id="{1f676c76-80e1-4239-95bb-83d0f6d0da78}"/><supportedOS Id="{8e0f7a12-bfb3-4fe8-b9a5-48fd50a15a9a}"/></application></compatibility><application xmlns="urn:schemas-microsoft-com:asm.v3"><windowsSettings><longPathAware xmlns="http://schemas.microsoft.com/SMI/2016/WindowsSettings">true</longPathAware></windowsSettings></application></assembly>',
 True,
 True,
 None,
 None,
 None,
 'D:\\Learn Bot upload\\build\\BotUploadYoutube\\BotUploadYoutube.pkg',
 [('PYZ-00.pyz',
   'D:\\Learn Bot upload\\build\\BotUploadYoutube\\PYZ-00.pyz',
   'PYZ'),
  ('struct',
   'C:\\Users\\kvn\\AppData\\Local\\Programs\\Python\\Python310\\lib\\struct.pyo',
   'PYMODULE'),
  ('pyimod01_os_path',
   'C:\\Users\\kvn\\AppData\\Local\\Programs\\Python\\Python310\\lib\\site-packages\\PyInstaller\\loader\\pyimod01_os_path.pyc',
   'PYMODULE'),
  ('pyimod02_archive',
   'C:\\Users\\kvn\\AppData\\Local\\Programs\\Python\\Python310\\lib\\site-packages\\PyInstaller\\loader\\pyimod02_archive.pyc',
   'PYMODULE'),
  ('pyimod03_importers',
   'C:\\Users\\kvn\\AppData\\Local\\Programs\\Python\\Python310\\lib\\site-packages\\PyInstaller\\loader\\pyimod03_importers.pyc',
   'PYMODULE'),
  ('pyimod04_ctypes',
   'C:\\Users\\kvn\\AppData\\Local\\Programs\\Python\\Python310\\lib\\site-packages\\PyInstaller\\loader\\pyimod04_ctypes.pyc',
   'PYMODULE'),
  ('pyiboot01_bootstrap',
   'C:\\Users\\kvn\\AppData\\Local\\Programs\\Python\\Python310\\lib\\site-packages\\PyInstaller\\loader\\pyiboot01_bootstrap.py',
   'PYSOURCE'),
  ('pyi_rth_inspect',
   'C:\\Users\\kvn\\AppData\\Local\\Programs\\Python\\Python310\\Lib\\site-packages\\PyInstaller\\hooks\\rthooks\\pyi_rth_inspect.py',
   'PYSOURCE'),
  ('pyi_rth_subprocess',
   'C:\\Users\\kvn\\AppData\\Local\\Programs\\Python\\Python310\\Lib\\site-packages\\PyInstaller\\hooks\\rthooks\\pyi_rth_subprocess.py',
   'PYSOURCE'),
  ('pyi_rth_pkgutil',
   'C:\\Users\\kvn\\AppData\\Local\\Programs\\Python\\Python310\\Lib\\site-packages\\PyInstaller\\hooks\\rthooks\\pyi_rth_pkgutil.py',
   'PYSOURCE'),
  ('pyi_rth_multiprocessing',
   'C:\\Users\\kvn\\AppData\\Local\\Programs\\Python\\Python310\\Lib\\site-packages\\PyInstaller\\hooks\\rthooks\\pyi_rth_multiprocessing.py',
   'PYSOURCE'),
  ('BotUploadYoutube', 'D:\\Learn Bot upload\\BotUploadYoutube.py', 'PYSOURCE'),
  ('python310.dll',
   'C:\\Users\\kvn\\AppData\\Local\\Programs\\Python\\Python310\\python310.dll',
   'BINARY'),
  ('VCRUNTIME140.dll',
   'C:\\Users\\kvn\\AppData\\Local\\Programs\\Python\\Python310\\VCRUNTIME140.dll',
   'BINARY'),
  ('_multiprocessing',
   'C:\\Users\\kvn\\AppData\\Local\\Programs\\Python\\Python310\\DLLs\\_multiprocessing.pyd',
   'EXTENSION'),
  ('pyexpat',
   'C:\\Users\\kvn\\AppData\\Local\\Programs\\Python\\Python310\\DLLs\\pyexpat.pyd',
   'EXTENSION'),
  ('_ssl',
   'C:\\Users\\kvn\\AppData\\Local\\Programs\\Python\\Python310\\DLLs\\_ssl.pyd',
   'EXTENSION'),
  ('_hashlib',
   'C:\\Users\\kvn\\AppData\\Local\\Programs\\Python\\Python310\\DLLs\\_hashlib.pyd',
   'EXTENSION'),
  ('unicodedata',
   'C:\\Users\\kvn\\AppData\\Local\\Programs\\Python\\Python310\\DLLs\\unicodedata.pyd',
   'EXTENSION'),
  ('_decimal',
   'C:\\Users\\kvn\\AppData\\Local\\Programs\\Python\\Python310\\DLLs\\_decimal.pyd',
   'EXTENSION'),
  ('_socket',
   'C:\\Users\\kvn\\AppData\\Local\\Programs\\Python\\Python310\\DLLs\\_socket.pyd',
   'EXTENSION'),
  ('select',
   'C:\\Users\\kvn\\AppData\\Local\\Programs\\Python\\Python310\\DLLs\\select.pyd',
   'EXTENSION'),
  ('_lzma',
   'C:\\Users\\kvn\\AppData\\Local\\Programs\\Python\\Python310\\DLLs\\_lzma.pyd',
   'EXTENSION'),
  ('_bz2',
   'C:\\Users\\kvn\\AppData\\Local\\Programs\\Python\\Python310\\DLLs\\_bz2.pyd',
   'EXTENSION'),
  ('_ctypes',
   'C:\\Users\\kvn\\AppData\\Local\\Programs\\Python\\Python310\\DLLs\\_ctypes.pyd',
   'EXTENSION'),
  ('_queue',
   'C:\\Users\\kvn\\AppData\\Local\\Programs\\Python\\Python310\\DLLs\\_queue.pyd',
   'EXTENSION'),
  ('_overlapped',
   'C:\\Users\\kvn\\AppData\\Local\\Programs\\Python\\Python310\\DLLs\\_overlapped.pyd',
   'EXTENSION'),
  ('_asyncio',
   'C:\\Users\\kvn\\AppData\\Local\\Programs\\Python\\Python310\\DLLs\\_asyncio.pyd',
   'EXTENSION'),
  ('_cffi_backend',
   'C:\\Users\\kvn\\AppData\\Local\\Programs\\Python\\Python310\\lib\\site-packages\\_cffi_backend.cp310-win_amd64.pyd',
   'EXTENSION'),
  ('cryptography.hazmat.bindings._openssl',
   'C:\\Users\\kvn\\AppData\\Local\\Programs\\Python\\Python310\\lib\\site-packages\\cryptography\\hazmat\\bindings\\_openssl.pyd',
   'EXTENSION'),
  ('cryptography.hazmat.bindings._rust',
   'C:\\Users\\kvn\\AppData\\Local\\Programs\\Python\\Python310\\lib\\site-packages\\cryptography\\hazmat\\bindings\\_rust.pyd',
   'EXTENSION'),
  ('_uuid',
   'C:\\Users\\kvn\\AppData\\Local\\Programs\\Python\\Python310\\DLLs\\_uuid.pyd',
   'EXTENSION'),
  ('libssl-1_1.dll',
   'C:\\Users\\kvn\\AppData\\Local\\Programs\\Python\\Python310\\DLLs\\libssl-1_1.dll',
   'BINARY'),
  ('libcrypto-1_1.dll',
   'C:\\Users\\kvn\\AppData\\Local\\Programs\\Python\\Python310\\DLLs\\libcrypto-1_1.dll',
   'BINARY'),
  ('libffi-7.dll',
   'C:\\Users\\kvn\\AppData\\Local\\Programs\\Python\\Python310\\DLLs\\libffi-7.dll',
   'BINARY'),
  ('python3.dll',
   'C:\\Users\\kvn\\AppData\\Local\\Programs\\Python\\Python310\\python3.dll',
   'BINARY'),
  ('base_library.zip',
   'D:\\Learn Bot upload\\build\\BotUploadYoutube\\base_library.zip',
   'DATA'),
  ('cryptography-36.0.1.dist-info\\top_level.txt',
   'c:\\users\\kvn\\appdata\\local\\programs\\python\\python310\\lib\\site-packages\\cryptography-36.0.1.dist-info\\top_level.txt',
   'DATA'),
  ('selenium\\webdriver\\remote\\isDisplayed.js',
   'C:\\Users\\kvn\\AppData\\Local\\Programs\\Python\\Python310\\lib\\site-packages\\selenium\\webdriver\\remote\\isDisplayed.js',
   'DATA'),
  ('cryptography-36.0.1.dist-info\\RECORD',
   'c:\\users\\kvn\\appdata\\local\\programs\\python\\python310\\lib\\site-packages\\cryptography-36.0.1.dist-info\\RECORD',
   'DATA'),
  ('cryptography-36.0.1.dist-info\\LICENSE',
   'c:\\users\\kvn\\appdata\\local\\programs\\python\\python310\\lib\\site-packages\\cryptography-36.0.1.dist-info\\LICENSE',
   'DATA'),
  ('cryptography-36.0.1.dist-info\\LICENSE.PSF',
   'c:\\users\\kvn\\appdata\\local\\programs\\python\\python310\\lib\\site-packages\\cryptography-36.0.1.dist-info\\LICENSE.PSF',
   'DATA'),
  ('cryptography-36.0.1.dist-info\\LICENSE.BSD',
   'c:\\users\\kvn\\appdata\\local\\programs\\python\\python310\\lib\\site-packages\\cryptography-36.0.1.dist-info\\LICENSE.BSD',
   'DATA'),
  ('selenium\\webdriver\\remote\\getAttribute.js',
   'C:\\Users\\kvn\\AppData\\Local\\Programs\\Python\\Python310\\lib\\site-packages\\selenium\\webdriver\\remote\\getAttribute.js',
   'DATA'),
  ('selenium\\webdriver\\common\\devtools\\v96\\py.typed',
   'C:\\Users\\kvn\\AppData\\Local\\Programs\\Python\\Python310\\lib\\site-packages\\selenium\\webdriver\\common\\devtools\\v96\\py.typed',
   'DATA'),
  ('selenium\\webdriver\\firefox\\webdriver_prefs.json',
   'C:\\Users\\kvn\\AppData\\Local\\Programs\\Python\\Python310\\lib\\site-packages\\selenium\\webdriver\\firefox\\webdriver_prefs.json',
   'DATA'),
  ('selenium\\webdriver\\common\\mutation-listener.js',
   'C:\\Users\\kvn\\AppData\\Local\\Programs\\Python\\Python310\\lib\\site-packages\\selenium\\webdriver\\common\\mutation-listener.js',
   'DATA'),
  ('cryptography-36.0.1.dist-info\\LICENSE.APACHE',
   'c:\\users\\kvn\\appdata\\local\\programs\\python\\python310\\lib\\site-packages\\cryptography-36.0.1.dist-info\\LICENSE.APACHE',
   'DATA'),
  ('selenium\\webdriver\\common\\devtools\\v95\\py.typed',
   'C:\\Users\\kvn\\AppData\\Local\\Programs\\Python\\Python310\\lib\\site-packages\\selenium\\webdriver\\common\\devtools\\v95\\py.typed',
   'DATA'),
  ('selenium\\webdriver\\common\\devtools\\v85\\py.typed',
   'C:\\Users\\kvn\\AppData\\Local\\Programs\\Python\\Python310\\lib\\site-packages\\selenium\\webdriver\\common\\devtools\\v85\\py.typed',
   'DATA'),
  ('cryptography-36.0.1.dist-info\\WHEEL',
   'c:\\users\\kvn\\appdata\\local\\programs\\python\\python310\\lib\\site-packages\\cryptography-36.0.1.dist-info\\WHEEL',
   'DATA'),
  ('cryptography-36.0.1.dist-info\\METADATA',
   'c:\\users\\kvn\\appdata\\local\\programs\\python\\python310\\lib\\site-packages\\cryptography-36.0.1.dist-info\\METADATA',
   'DATA'),
  ('selenium\\webdriver\\remote\\findElements.js',
   'C:\\Users\\kvn\\AppData\\Local\\Programs\\Python\\Python310\\lib\\site-packages\\selenium\\webdriver\\remote\\findElements.js',
   'DATA'),
  ('selenium\\webdriver\\common\\devtools\\v94\\py.typed',
   'C:\\Users\\kvn\\AppData\\Local\\Programs\\Python\\Python310\\lib\\site-packages\\selenium\\webdriver\\common\\devtools\\v94\\py.typed',
   'DATA'),
  ('cryptography-36.0.1.dist-info\\INSTALLER',
   'c:\\users\\kvn\\appdata\\local\\programs\\python\\python310\\lib\\site-packages\\cryptography-36.0.1.dist-info\\INSTALLER',
   'DATA'),
  ('certifi\\cacert.pem',
   'C:\\Users\\kvn\\AppData\\Local\\Programs\\Python\\Python310\\lib\\site-packages\\certifi\\cacert.pem',
   'DATA')],
 [],
 False,
 False,
 1646182651,
 [('run.exe',
   'C:\\Users\\kvn\\AppData\\Local\\Programs\\Python\\Python310\\lib\\site-packages\\PyInstaller\\bootloader\\Windows-64bit\\run.exe',
   'EXECUTABLE')])
