('D:\\Learn Bot upload\\build\\BotUploadYoutube\\PYZ-00.pyz',
 [('multiprocessing.popen_spawn_posix',
   'C:\\Users\\kvn\\AppData\\Local\\Programs\\Python\\Python310\\lib\\multiprocessing\\popen_spawn_posix.py',
   'PYMODULE'),
  ('multiprocessing.resource_tracker',
   'C:\\Users\\kvn\\AppData\\Local\\Programs\\Python\\Python310\\lib\\multiprocessing\\resource_tracker.py',
   'PYMODULE'),
  ('threading',
   'C:\\Users\\kvn\\AppData\\Local\\Programs\\Python\\Python310\\lib\\threading.py',
   'PYMODULE'),
  ('_threading_local',
   'C:\\Users\\kvn\\AppData\\Local\\Programs\\Python\\Python310\\lib\\_threading_local.py',
   'PYMODULE'),
  ('contextlib',
   'C:\\Users\\kvn\\AppData\\Local\\Programs\\Python\\Python310\\lib\\contextlib.py',
   'PYMODULE'),
  ('signal',
   'C:\\Users\\kvn\\AppData\\Local\\Programs\\Python\\Python310\\lib\\signal.py',
   'PYMODULE'),
  ('multiprocessing.util',
   'C:\\Users\\kvn\\AppData\\Local\\Programs\\Python\\Python310\\lib\\multiprocessing\\util.py',
   'PYMODULE'),
  ('multiprocessing.forkserver',
   'C:\\Users\\kvn\\AppData\\Local\\Programs\\Python\\Python310\\lib\\multiprocessing\\forkserver.py',
   'PYMODULE'),
  ('multiprocessing.connection',
   'C:\\Users\\kvn\\AppData\\Local\\Programs\\Python\\Python310\\lib\\multiprocessing\\connection.py',
   'PYMODULE'),
  ('multiprocessing.resource_sharer',
   'C:\\Users\\kvn\\AppData\\Local\\Programs\\Python\\Python310\\lib\\multiprocessing\\resource_sharer.py',
   'PYMODULE'),
  ('xmlrpc.client',
   'C:\\Users\\kvn\\AppData\\Local\\Programs\\Python\\Python310\\lib\\xmlrpc\\client.py',
   'PYMODULE'),
  ('xmlrpc',
   'C:\\Users\\kvn\\AppData\\Local\\Programs\\Python\\Python310\\lib\\xmlrpc\\__init__.py',
   'PYMODULE'),
  ('gzip',
   'C:\\Users\\kvn\\AppData\\Local\\Programs\\Python\\Python310\\lib\\gzip.py',
   'PYMODULE'),
  ('argparse',
   'C:\\Users\\kvn\\AppData\\Local\\Programs\\Python\\Python310\\lib\\argparse.py',
   'PYMODULE'),
  ('textwrap',
   'C:\\Users\\kvn\\AppData\\Local\\Programs\\Python\\Python310\\lib\\textwrap.py',
   'PYMODULE'),
  ('copy',
   'C:\\Users\\kvn\\AppData\\Local\\Programs\\Python\\Python310\\lib\\copy.py',
   'PYMODULE'),
  ('gettext',
   'C:\\Users\\kvn\\AppData\\Local\\Programs\\Python\\Python310\\lib\\gettext.py',
   'PYMODULE'),
  ('_compression',
   'C:\\Users\\kvn\\AppData\\Local\\Programs\\Python\\Python310\\lib\\_compression.py',
   'PYMODULE'),
  ('xml.parsers.expat',
   'C:\\Users\\kvn\\AppData\\Local\\Programs\\Python\\Python310\\lib\\xml\\parsers\\expat.py',
   'PYMODULE'),
  ('xml.parsers',
   'C:\\Users\\kvn\\AppData\\Local\\Programs\\Python\\Python310\\lib\\xml\\parsers\\__init__.py',
   'PYMODULE'),
  ('xml',
   'C:\\Users\\kvn\\AppData\\Local\\Programs\\Python\\Python310\\lib\\xml\\__init__.py',
   'PYMODULE'),
  ('xml.sax.expatreader',
   'C:\\Users\\kvn\\AppData\\Local\\Programs\\Python\\Python310\\lib\\xml\\sax\\expatreader.py',
   'PYMODULE'),
  ('xml.sax.saxutils',
   'C:\\Users\\kvn\\AppData\\Local\\Programs\\Python\\Python310\\lib\\xml\\sax\\saxutils.py',
   'PYMODULE'),
  ('urllib.request',
   'C:\\Users\\kvn\\AppData\\Local\\Programs\\Python\\Python310\\lib\\urllib\\request.py',
   'PYMODULE'),
  ('fnmatch',
   'C:\\Users\\kvn\\AppData\\Local\\Programs\\Python\\Python310\\lib\\fnmatch.py',
   'PYMODULE'),
  ('getpass',
   'C:\\Users\\kvn\\AppData\\Local\\Programs\\Python\\Python310\\lib\\getpass.py',
   'PYMODULE'),
  ('nturl2path',
   'C:\\Users\\kvn\\AppData\\Local\\Programs\\Python\\Python310\\lib\\nturl2path.py',
   'PYMODULE'),
  ('ftplib',
   'C:\\Users\\kvn\\AppData\\Local\\Programs\\Python\\Python310\\lib\\ftplib.py',
   'PYMODULE'),
  ('netrc',
   'C:\\Users\\kvn\\AppData\\Local\\Programs\\Python\\Python310\\lib\\netrc.py',
   'PYMODULE'),
  ('stat',
   'C:\\Users\\kvn\\AppData\\Local\\Programs\\Python\\Python310\\lib\\stat.py',
   'PYMODULE'),
  ('shlex',
   'C:\\Users\\kvn\\AppData\\Local\\Programs\\Python\\Python310\\lib\\shlex.py',
   'PYMODULE'),
  ('mimetypes',
   'C:\\Users\\kvn\\AppData\\Local\\Programs\\Python\\Python310\\lib\\mimetypes.py',
   'PYMODULE'),
  ('getopt',
   'C:\\Users\\kvn\\AppData\\Local\\Programs\\Python\\Python310\\lib\\getopt.py',
   'PYMODULE'),
  ('email.utils',
   'C:\\Users\\kvn\\AppData\\Local\\Programs\\Python\\Python310\\lib\\email\\utils.py',
   'PYMODULE'),
  ('email.charset',
   'C:\\Users\\kvn\\AppData\\Local\\Programs\\Python\\Python310\\lib\\email\\charset.py',
   'PYMODULE'),
  ('email.encoders',
   'C:\\Users\\kvn\\AppData\\Local\\Programs\\Python\\Python310\\lib\\email\\encoders.py',
   'PYMODULE'),
  ('quopri',
   'C:\\Users\\kvn\\AppData\\Local\\Programs\\Python\\Python310\\lib\\quopri.py',
   'PYMODULE'),
  ('email.errors',
   'C:\\Users\\kvn\\AppData\\Local\\Programs\\Python\\Python310\\lib\\email\\errors.py',
   'PYMODULE'),
  ('email.quoprimime',
   'C:\\Users\\kvn\\AppData\\Local\\Programs\\Python\\Python310\\lib\\email\\quoprimime.py',
   'PYMODULE'),
  ('email.base64mime',
   'C:\\Users\\kvn\\AppData\\Local\\Programs\\Python\\Python310\\lib\\email\\base64mime.py',
   'PYMODULE'),
  ('email._parseaddr',
   'C:\\Users\\kvn\\AppData\\Local\\Programs\\Python\\Python310\\lib\\email\\_parseaddr.py',
   'PYMODULE'),
  ('calendar',
   'C:\\Users\\kvn\\AppData\\Local\\Programs\\Python\\Python310\\lib\\calendar.py',
   'PYMODULE'),
  ('http.cookiejar',
   'C:\\Users\\kvn\\AppData\\Local\\Programs\\Python\\Python310\\lib\\http\\cookiejar.py',
   'PYMODULE'),
  ('http',
   'C:\\Users\\kvn\\AppData\\Local\\Programs\\Python\\Python310\\lib\\http\\__init__.py',
   'PYMODULE'),
  ('urllib',
   'C:\\Users\\kvn\\AppData\\Local\\Programs\\Python\\Python310\\lib\\urllib\\__init__.py',
   'PYMODULE'),
  ('ssl',
   'C:\\Users\\kvn\\AppData\\Local\\Programs\\Python\\Python310\\lib\\ssl.py',
   'PYMODULE'),
  ('urllib.response',
   'C:\\Users\\kvn\\AppData\\Local\\Programs\\Python\\Python310\\lib\\urllib\\response.py',
   'PYMODULE'),
  ('urllib.error',
   'C:\\Users\\kvn\\AppData\\Local\\Programs\\Python\\Python310\\lib\\urllib\\error.py',
   'PYMODULE'),
  ('string',
   'C:\\Users\\kvn\\AppData\\Local\\Programs\\Python\\Python310\\lib\\string.py',
   'PYMODULE'),
  ('posixpath',
   'C:\\Users\\kvn\\AppData\\Local\\Programs\\Python\\Python310\\lib\\posixpath.py',
   'PYMODULE'),
  ('genericpath',
   'C:\\Users\\kvn\\AppData\\Local\\Programs\\Python\\Python310\\lib\\genericpath.py',
   'PYMODULE'),
  ('hashlib',
   'C:\\Users\\kvn\\AppData\\Local\\Programs\\Python\\Python310\\lib\\hashlib.py',
   'PYMODULE'),
  ('email',
   'C:\\Users\\kvn\\AppData\\Local\\Programs\\Python\\Python310\\lib\\email\\__init__.py',
   'PYMODULE'),
  ('email.parser',
   'C:\\Users\\kvn\\AppData\\Local\\Programs\\Python\\Python310\\lib\\email\\parser.py',
   'PYMODULE'),
  ('email._policybase',
   'C:\\Users\\kvn\\AppData\\Local\\Programs\\Python\\Python310\\lib\\email\\_policybase.py',
   'PYMODULE'),
  ('email.feedparser',
   'C:\\Users\\kvn\\AppData\\Local\\Programs\\Python\\Python310\\lib\\email\\feedparser.py',
   'PYMODULE'),
  ('email.message',
   'C:\\Users\\kvn\\AppData\\Local\\Programs\\Python\\Python310\\lib\\email\\message.py',
   'PYMODULE'),
  ('email.policy',
   'C:\\Users\\kvn\\AppData\\Local\\Programs\\Python\\Python310\\lib\\email\\policy.py',
   'PYMODULE'),
  ('email.contentmanager',
   'C:\\Users\\kvn\\AppData\\Local\\Programs\\Python\\Python310\\lib\\email\\contentmanager.py',
   'PYMODULE'),
  ('email.headerregistry',
   'C:\\Users\\kvn\\AppData\\Local\\Programs\\Python\\Python310\\lib\\email\\headerregistry.py',
   'PYMODULE'),
  ('email.iterators',
   'C:\\Users\\kvn\\AppData\\Local\\Programs\\Python\\Python310\\lib\\email\\iterators.py',
   'PYMODULE'),
  ('email.generator',
   'C:\\Users\\kvn\\AppData\\Local\\Programs\\Python\\Python310\\lib\\email\\generator.py',
   'PYMODULE'),
  ('email._encoded_words',
   'C:\\Users\\kvn\\AppData\\Local\\Programs\\Python\\Python310\\lib\\email\\_encoded_words.py',
   'PYMODULE'),
  ('uu',
   'C:\\Users\\kvn\\AppData\\Local\\Programs\\Python\\Python310\\lib\\uu.py',
   'PYMODULE'),
  ('optparse',
   'C:\\Users\\kvn\\AppData\\Local\\Programs\\Python\\Python310\\lib\\optparse.py',
   'PYMODULE'),
  ('email._header_value_parser',
   'C:\\Users\\kvn\\AppData\\Local\\Programs\\Python\\Python310\\lib\\email\\_header_value_parser.py',
   'PYMODULE'),
  ('email.header',
   'C:\\Users\\kvn\\AppData\\Local\\Programs\\Python\\Python310\\lib\\email\\header.py',
   'PYMODULE'),
  ('bisect',
   'C:\\Users\\kvn\\AppData\\Local\\Programs\\Python\\Python310\\lib\\bisect.py',
   'PYMODULE'),
  ('xml.sax',
   'C:\\Users\\kvn\\AppData\\Local\\Programs\\Python\\Python310\\lib\\xml\\sax\\__init__.py',
   'PYMODULE'),
  ('xml.sax.handler',
   'C:\\Users\\kvn\\AppData\\Local\\Programs\\Python\\Python310\\lib\\xml\\sax\\handler.py',
   'PYMODULE'),
  ('xml.sax._exceptions',
   'C:\\Users\\kvn\\AppData\\Local\\Programs\\Python\\Python310\\lib\\xml\\sax\\_exceptions.py',
   'PYMODULE'),
  ('xml.sax.xmlreader',
   'C:\\Users\\kvn\\AppData\\Local\\Programs\\Python\\Python310\\lib\\xml\\sax\\xmlreader.py',
   'PYMODULE'),
  ('urllib.parse',
   'C:\\Users\\kvn\\AppData\\Local\\Programs\\Python\\Python310\\lib\\urllib\\parse.py',
   'PYMODULE'),
  ('http.client',
   'C:\\Users\\kvn\\AppData\\Local\\Programs\\Python\\Python310\\lib\\http\\client.py',
   'PYMODULE'),
  ('decimal',
   'C:\\Users\\kvn\\AppData\\Local\\Programs\\Python\\Python310\\lib\\decimal.py',
   'PYMODULE'),
  ('_pydecimal',
   'C:\\Users\\kvn\\AppData\\Local\\Programs\\Python\\Python310\\lib\\_pydecimal.py',
   'PYMODULE'),
  ('contextvars',
   'C:\\Users\\kvn\\AppData\\Local\\Programs\\Python\\Python310\\lib\\contextvars.py',
   'PYMODULE'),
  ('numbers',
   'C:\\Users\\kvn\\AppData\\Local\\Programs\\Python\\Python310\\lib\\numbers.py',
   'PYMODULE'),
  ('base64',
   'C:\\Users\\kvn\\AppData\\Local\\Programs\\Python\\Python310\\lib\\base64.py',
   'PYMODULE'),
  ('hmac',
   'C:\\Users\\kvn\\AppData\\Local\\Programs\\Python\\Python310\\lib\\hmac.py',
   'PYMODULE'),
  ('struct',
   'C:\\Users\\kvn\\AppData\\Local\\Programs\\Python\\Python310\\lib\\struct.py',
   'PYMODULE'),
  ('socket',
   'C:\\Users\\kvn\\AppData\\Local\\Programs\\Python\\Python310\\lib\\socket.py',
   'PYMODULE'),
  ('selectors',
   'C:\\Users\\kvn\\AppData\\Local\\Programs\\Python\\Python310\\lib\\selectors.py',
   'PYMODULE'),
  ('tempfile',
   'C:\\Users\\kvn\\AppData\\Local\\Programs\\Python\\Python310\\lib\\tempfile.py',
   'PYMODULE'),
  ('shutil',
   'C:\\Users\\kvn\\AppData\\Local\\Programs\\Python\\Python310\\lib\\shutil.py',
   'PYMODULE'),
  ('zipfile',
   'C:\\Users\\kvn\\AppData\\Local\\Programs\\Python\\Python310\\lib\\zipfile.py',
   'PYMODULE'),
  ('py_compile',
   'C:\\Users\\kvn\\AppData\\Local\\Programs\\Python\\Python310\\lib\\py_compile.py',
   'PYMODULE'),
  ('ntpath',
   'C:\\Users\\kvn\\AppData\\Local\\Programs\\Python\\Python310\\lib\\ntpath.py',
   'PYMODULE'),
  ('importlib.machinery',
   'C:\\Users\\kvn\\AppData\\Local\\Programs\\Python\\Python310\\lib\\importlib\\machinery.py',
   'PYMODULE'),
  ('importlib',
   'C:\\Users\\kvn\\AppData\\Local\\Programs\\Python\\Python310\\lib\\importlib\\__init__.py',
   'PYMODULE'),
  ('importlib._common',
   'C:\\Users\\kvn\\AppData\\Local\\Programs\\Python\\Python310\\lib\\importlib\\_common.py',
   'PYMODULE'),
  ('importlib._adapters',
   'C:\\Users\\kvn\\AppData\\Local\\Programs\\Python\\Python310\\lib\\importlib\\_adapters.py',
   'PYMODULE'),
  ('typing',
   'C:\\Users\\kvn\\AppData\\Local\\Programs\\Python\\Python310\\lib\\typing.py',
   'PYMODULE'),
  ('importlib.abc',
   'C:\\Users\\kvn\\AppData\\Local\\Programs\\Python\\Python310\\lib\\importlib\\abc.py',
   'PYMODULE'),
  ('importlib._abc',
   'C:\\Users\\kvn\\AppData\\Local\\Programs\\Python\\Python310\\lib\\importlib\\_abc.py',
   'PYMODULE'),
  ('importlib._bootstrap',
   'C:\\Users\\kvn\\AppData\\Local\\Programs\\Python\\Python310\\lib\\importlib\\_bootstrap.py',
   'PYMODULE'),
  ('importlib._bootstrap_external',
   'C:\\Users\\kvn\\AppData\\Local\\Programs\\Python\\Python310\\lib\\importlib\\_bootstrap_external.py',
   'PYMODULE'),
  ('importlib.metadata',
   'C:\\Users\\kvn\\AppData\\Local\\Programs\\Python\\Python310\\lib\\importlib\\metadata\\__init__.py',
   'PYMODULE'),
  ('importlib.metadata._itertools',
   'C:\\Users\\kvn\\AppData\\Local\\Programs\\Python\\Python310\\lib\\importlib\\metadata\\_itertools.py',
   'PYMODULE'),
  ('importlib.metadata._functools',
   'C:\\Users\\kvn\\AppData\\Local\\Programs\\Python\\Python310\\lib\\importlib\\metadata\\_functools.py',
   'PYMODULE'),
  ('importlib.metadata._collections',
   'C:\\Users\\kvn\\AppData\\Local\\Programs\\Python\\Python310\\lib\\importlib\\metadata\\_collections.py',
   'PYMODULE'),
  ('importlib.metadata._meta',
   'C:\\Users\\kvn\\AppData\\Local\\Programs\\Python\\Python310\\lib\\importlib\\metadata\\_meta.py',
   'PYMODULE'),
  ('importlib.metadata._adapters',
   'C:\\Users\\kvn\\AppData\\Local\\Programs\\Python\\Python310\\lib\\importlib\\metadata\\_adapters.py',
   'PYMODULE'),
  ('importlib.metadata._text',
   'C:\\Users\\kvn\\AppData\\Local\\Programs\\Python\\Python310\\lib\\importlib\\metadata\\_text.py',
   'PYMODULE'),
  ('csv',
   'C:\\Users\\kvn\\AppData\\Local\\Programs\\Python\\Python310\\lib\\csv.py',
   'PYMODULE'),
  ('importlib.readers',
   'C:\\Users\\kvn\\AppData\\Local\\Programs\\Python\\Python310\\lib\\importlib\\readers.py',
   'PYMODULE'),
  ('pathlib',
   'C:\\Users\\kvn\\AppData\\Local\\Programs\\Python\\Python310\\lib\\pathlib.py',
   'PYMODULE'),
  ('importlib.util',
   'C:\\Users\\kvn\\AppData\\Local\\Programs\\Python\\Python310\\lib\\importlib\\util.py',
   'PYMODULE'),
  ('tarfile',
   'C:\\Users\\kvn\\AppData\\Local\\Programs\\Python\\Python310\\lib\\tarfile.py',
   'PYMODULE'),
  ('lzma',
   'C:\\Users\\kvn\\AppData\\Local\\Programs\\Python\\Python310\\lib\\lzma.py',
   'PYMODULE'),
  ('bz2',
   'C:\\Users\\kvn\\AppData\\Local\\Programs\\Python\\Python310\\lib\\bz2.py',
   'PYMODULE'),
  ('multiprocessing.process',
   'C:\\Users\\kvn\\AppData\\Local\\Programs\\Python\\Python310\\lib\\multiprocessing\\process.py',
   'PYMODULE'),
  ('multiprocessing.context',
   'C:\\Users\\kvn\\AppData\\Local\\Programs\\Python\\Python310\\lib\\multiprocessing\\context.py',
   'PYMODULE'),
  ('multiprocessing.popen_forkserver',
   'C:\\Users\\kvn\\AppData\\Local\\Programs\\Python\\Python310\\lib\\multiprocessing\\popen_forkserver.py',
   'PYMODULE'),
  ('multiprocessing.sharedctypes',
   'C:\\Users\\kvn\\AppData\\Local\\Programs\\Python\\Python310\\lib\\multiprocessing\\sharedctypes.py',
   'PYMODULE'),
  ('multiprocessing.heap',
   'C:\\Users\\kvn\\AppData\\Local\\Programs\\Python\\Python310\\lib\\multiprocessing\\heap.py',
   'PYMODULE'),
  ('ctypes',
   'C:\\Users\\kvn\\AppData\\Local\\Programs\\Python\\Python310\\lib\\ctypes\\__init__.py',
   'PYMODULE'),
  ('ctypes._endian',
   'C:\\Users\\kvn\\AppData\\Local\\Programs\\Python\\Python310\\lib\\ctypes\\_endian.py',
   'PYMODULE'),
  ('multiprocessing.pool',
   'C:\\Users\\kvn\\AppData\\Local\\Programs\\Python\\Python310\\lib\\multiprocessing\\pool.py',
   'PYMODULE'),
  ('multiprocessing.dummy',
   'C:\\Users\\kvn\\AppData\\Local\\Programs\\Python\\Python310\\lib\\multiprocessing\\dummy\\__init__.py',
   'PYMODULE'),
  ('multiprocessing.dummy.connection',
   'C:\\Users\\kvn\\AppData\\Local\\Programs\\Python\\Python310\\lib\\multiprocessing\\dummy\\connection.py',
   'PYMODULE'),
  ('queue',
   'C:\\Users\\kvn\\AppData\\Local\\Programs\\Python\\Python310\\lib\\queue.py',
   'PYMODULE'),
  ('multiprocessing.queues',
   'C:\\Users\\kvn\\AppData\\Local\\Programs\\Python\\Python310\\lib\\multiprocessing\\queues.py',
   'PYMODULE'),
  ('multiprocessing.synchronize',
   'C:\\Users\\kvn\\AppData\\Local\\Programs\\Python\\Python310\\lib\\multiprocessing\\synchronize.py',
   'PYMODULE'),
  ('multiprocessing.managers',
   'C:\\Users\\kvn\\AppData\\Local\\Programs\\Python\\Python310\\lib\\multiprocessing\\managers.py',
   'PYMODULE'),
  ('multiprocessing.shared_memory',
   'C:\\Users\\kvn\\AppData\\Local\\Programs\\Python\\Python310\\lib\\multiprocessing\\shared_memory.py',
   'PYMODULE'),
  ('secrets',
   'C:\\Users\\kvn\\AppData\\Local\\Programs\\Python\\Python310\\lib\\secrets.py',
   'PYMODULE'),
  ('multiprocessing.reduction',
   'C:\\Users\\kvn\\AppData\\Local\\Programs\\Python\\Python310\\lib\\multiprocessing\\reduction.py',
   'PYMODULE'),
  ('pickle',
   'C:\\Users\\kvn\\AppData\\Local\\Programs\\Python\\Python310\\lib\\pickle.py',
   'PYMODULE'),
  ('pprint',
   'C:\\Users\\kvn\\AppData\\Local\\Programs\\Python\\Python310\\lib\\pprint.py',
   'PYMODULE'),
  ('dataclasses',
   'C:\\Users\\kvn\\AppData\\Local\\Programs\\Python\\Python310\\lib\\dataclasses.py',
   'PYMODULE'),
  ('inspect',
   'C:\\Users\\kvn\\AppData\\Local\\Programs\\Python\\Python310\\lib\\inspect.py',
   'PYMODULE'),
  ('token',
   'C:\\Users\\kvn\\AppData\\Local\\Programs\\Python\\Python310\\lib\\token.py',
   'PYMODULE'),
  ('dis',
   'C:\\Users\\kvn\\AppData\\Local\\Programs\\Python\\Python310\\lib\\dis.py',
   'PYMODULE'),
  ('opcode',
   'C:\\Users\\kvn\\AppData\\Local\\Programs\\Python\\Python310\\lib\\opcode.py',
   'PYMODULE'),
  ('ast',
   'C:\\Users\\kvn\\AppData\\Local\\Programs\\Python\\Python310\\lib\\ast.py',
   'PYMODULE'),
  ('doctest',
   'C:\\Users\\kvn\\AppData\\Local\\Programs\\Python\\Python310\\lib\\doctest.py',
   'PYMODULE'),
  ('unittest',
   'C:\\Users\\kvn\\AppData\\Local\\Programs\\Python\\Python310\\lib\\unittest\\__init__.py',
   'PYMODULE'),
  ('unittest.async_case',
   'C:\\Users\\kvn\\AppData\\Local\\Programs\\Python\\Python310\\lib\\unittest\\async_case.py',
   'PYMODULE'),
  ('asyncio',
   'C:\\Users\\kvn\\AppData\\Local\\Programs\\Python\\Python310\\lib\\asyncio\\__init__.py',
   'PYMODULE'),
  ('asyncio.unix_events',
   'C:\\Users\\kvn\\AppData\\Local\\Programs\\Python\\Python310\\lib\\asyncio\\unix_events.py',
   'PYMODULE'),
  ('asyncio.log',
   'C:\\Users\\kvn\\AppData\\Local\\Programs\\Python\\Python310\\lib\\asyncio\\log.py',
   'PYMODULE'),
  ('asyncio.windows_events',
   'C:\\Users\\kvn\\AppData\\Local\\Programs\\Python\\Python310\\lib\\asyncio\\windows_events.py',
   'PYMODULE'),
  ('asyncio.windows_utils',
   'C:\\Users\\kvn\\AppData\\Local\\Programs\\Python\\Python310\\lib\\asyncio\\windows_utils.py',
   'PYMODULE'),
  ('asyncio.selector_events',
   'C:\\Users\\kvn\\AppData\\Local\\Programs\\Python\\Python310\\lib\\asyncio\\selector_events.py',
   'PYMODULE'),
  ('asyncio.proactor_events',
   'C:\\Users\\kvn\\AppData\\Local\\Programs\\Python\\Python310\\lib\\asyncio\\proactor_events.py',
   'PYMODULE'),
  ('asyncio.base_subprocess',
   'C:\\Users\\kvn\\AppData\\Local\\Programs\\Python\\Python310\\lib\\asyncio\\base_subprocess.py',
   'PYMODULE'),
  ('asyncio.threads',
   'C:\\Users\\kvn\\AppData\\Local\\Programs\\Python\\Python310\\lib\\asyncio\\threads.py',
   'PYMODULE'),
  ('asyncio.subprocess',
   'C:\\Users\\kvn\\AppData\\Local\\Programs\\Python\\Python310\\lib\\asyncio\\subprocess.py',
   'PYMODULE'),
  ('asyncio.streams',
   'C:\\Users\\kvn\\AppData\\Local\\Programs\\Python\\Python310\\lib\\asyncio\\streams.py',
   'PYMODULE'),
  ('asyncio.queues',
   'C:\\Users\\kvn\\AppData\\Local\\Programs\\Python\\Python310\\lib\\asyncio\\queues.py',
   'PYMODULE'),
  ('asyncio.runners',
   'C:\\Users\\kvn\\AppData\\Local\\Programs\\Python\\Python310\\lib\\asyncio\\runners.py',
   'PYMODULE'),
  ('asyncio.events',
   'C:\\Users\\kvn\\AppData\\Local\\Programs\\Python\\Python310\\lib\\asyncio\\events.py',
   'PYMODULE'),
  ('asyncio.base_events',
   'C:\\Users\\kvn\\AppData\\Local\\Programs\\Python\\Python310\\lib\\asyncio\\base_events.py',
   'PYMODULE'),
  ('concurrent.futures',
   'C:\\Users\\kvn\\AppData\\Local\\Programs\\Python\\Python310\\lib\\concurrent\\futures\\__init__.py',
   'PYMODULE'),
  ('concurrent.futures.thread',
   'C:\\Users\\kvn\\AppData\\Local\\Programs\\Python\\Python310\\lib\\concurrent\\futures\\thread.py',
   'PYMODULE'),
  ('concurrent.futures.process',
   'C:\\Users\\kvn\\AppData\\Local\\Programs\\Python\\Python310\\lib\\concurrent\\futures\\process.py',
   'PYMODULE'),
  ('concurrent.futures._base',
   'C:\\Users\\kvn\\AppData\\Local\\Programs\\Python\\Python310\\lib\\concurrent\\futures\\_base.py',
   'PYMODULE'),
  ('concurrent',
   'C:\\Users\\kvn\\AppData\\Local\\Programs\\Python\\Python310\\lib\\concurrent\\__init__.py',
   'PYMODULE'),
  ('asyncio.trsock',
   'C:\\Users\\kvn\\AppData\\Local\\Programs\\Python\\Python310\\lib\\asyncio\\trsock.py',
   'PYMODULE'),
  ('asyncio.staggered',
   'C:\\Users\\kvn\\AppData\\Local\\Programs\\Python\\Python310\\lib\\asyncio\\staggered.py',
   'PYMODULE'),
  ('asyncio.tasks',
   'C:\\Users\\kvn\\AppData\\Local\\Programs\\Python\\Python310\\lib\\asyncio\\tasks.py',
   'PYMODULE'),
  ('asyncio.base_tasks',
   'C:\\Users\\kvn\\AppData\\Local\\Programs\\Python\\Python310\\lib\\asyncio\\base_tasks.py',
   'PYMODULE'),
  ('asyncio.locks',
   'C:\\Users\\kvn\\AppData\\Local\\Programs\\Python\\Python310\\lib\\asyncio\\locks.py',
   'PYMODULE'),
  ('asyncio.mixins',
   'C:\\Users\\kvn\\AppData\\Local\\Programs\\Python\\Python310\\lib\\asyncio\\mixins.py',
   'PYMODULE'),
  ('asyncio.sslproto',
   'C:\\Users\\kvn\\AppData\\Local\\Programs\\Python\\Python310\\lib\\asyncio\\sslproto.py',
   'PYMODULE'),
  ('asyncio.transports',
   'C:\\Users\\kvn\\AppData\\Local\\Programs\\Python\\Python310\\lib\\asyncio\\transports.py',
   'PYMODULE'),
  ('asyncio.protocols',
   'C:\\Users\\kvn\\AppData\\Local\\Programs\\Python\\Python310\\lib\\asyncio\\protocols.py',
   'PYMODULE'),
  ('asyncio.futures',
   'C:\\Users\\kvn\\AppData\\Local\\Programs\\Python\\Python310\\lib\\asyncio\\futures.py',
   'PYMODULE'),
  ('asyncio.exceptions',
   'C:\\Users\\kvn\\AppData\\Local\\Programs\\Python\\Python310\\lib\\asyncio\\exceptions.py',
   'PYMODULE'),
  ('asyncio.coroutines',
   'C:\\Users\\kvn\\AppData\\Local\\Programs\\Python\\Python310\\lib\\asyncio\\coroutines.py',
   'PYMODULE'),
  ('asyncio.base_futures',
   'C:\\Users\\kvn\\AppData\\Local\\Programs\\Python\\Python310\\lib\\asyncio\\base_futures.py',
   'PYMODULE'),
  ('asyncio.format_helpers',
   'C:\\Users\\kvn\\AppData\\Local\\Programs\\Python\\Python310\\lib\\asyncio\\format_helpers.py',
   'PYMODULE'),
  ('asyncio.constants',
   'C:\\Users\\kvn\\AppData\\Local\\Programs\\Python\\Python310\\lib\\asyncio\\constants.py',
   'PYMODULE'),
  ('unittest.signals',
   'C:\\Users\\kvn\\AppData\\Local\\Programs\\Python\\Python310\\lib\\unittest\\signals.py',
   'PYMODULE'),
  ('unittest.main',
   'C:\\Users\\kvn\\AppData\\Local\\Programs\\Python\\Python310\\lib\\unittest\\main.py',
   'PYMODULE'),
  ('unittest.runner',
   'C:\\Users\\kvn\\AppData\\Local\\Programs\\Python\\Python310\\lib\\unittest\\runner.py',
   'PYMODULE'),
  ('unittest.loader',
   'C:\\Users\\kvn\\AppData\\Local\\Programs\\Python\\Python310\\lib\\unittest\\loader.py',
   'PYMODULE'),
  ('unittest.suite',
   'C:\\Users\\kvn\\AppData\\Local\\Programs\\Python\\Python310\\lib\\unittest\\suite.py',
   'PYMODULE'),
  ('unittest.case',
   'C:\\Users\\kvn\\AppData\\Local\\Programs\\Python\\Python310\\lib\\unittest\\case.py',
   'PYMODULE'),
  ('unittest._log',
   'C:\\Users\\kvn\\AppData\\Local\\Programs\\Python\\Python310\\lib\\unittest\\_log.py',
   'PYMODULE'),
  ('unittest.result',
   'C:\\Users\\kvn\\AppData\\Local\\Programs\\Python\\Python310\\lib\\unittest\\result.py',
   'PYMODULE'),
  ('unittest.util',
   'C:\\Users\\kvn\\AppData\\Local\\Programs\\Python\\Python310\\lib\\unittest\\util.py',
   'PYMODULE'),
  ('pdb',
   'C:\\Users\\kvn\\AppData\\Local\\Programs\\Python\\Python310\\lib\\pdb.py',
   'PYMODULE'),
  ('pydoc',
   'C:\\Users\\kvn\\AppData\\Local\\Programs\\Python\\Python310\\lib\\pydoc.py',
   'PYMODULE'),
  ('webbrowser',
   'C:\\Users\\kvn\\AppData\\Local\\Programs\\Python\\Python310\\lib\\webbrowser.py',
   'PYMODULE'),
  ('http.server',
   'C:\\Users\\kvn\\AppData\\Local\\Programs\\Python\\Python310\\lib\\http\\server.py',
   'PYMODULE'),
  ('socketserver',
   'C:\\Users\\kvn\\AppData\\Local\\Programs\\Python\\Python310\\lib\\socketserver.py',
   'PYMODULE'),
  ('html',
   'C:\\Users\\kvn\\AppData\\Local\\Programs\\Python\\Python310\\lib\\html\\__init__.py',
   'PYMODULE'),
  ('html.entities',
   'C:\\Users\\kvn\\AppData\\Local\\Programs\\Python\\Python310\\lib\\html\\entities.py',
   'PYMODULE'),
  ('pydoc_data.topics',
   'C:\\Users\\kvn\\AppData\\Local\\Programs\\Python\\Python310\\lib\\pydoc_data\\topics.py',
   'PYMODULE'),
  ('pydoc_data',
   'C:\\Users\\kvn\\AppData\\Local\\Programs\\Python\\Python310\\lib\\pydoc_data\\__init__.py',
   'PYMODULE'),
  ('tty',
   'C:\\Users\\kvn\\AppData\\Local\\Programs\\Python\\Python310\\lib\\tty.py',
   'PYMODULE'),
  ('sysconfig',
   'C:\\Users\\kvn\\AppData\\Local\\Programs\\Python\\Python310\\lib\\sysconfig.py',
   'PYMODULE'),
  ('_aix_support',
   'C:\\Users\\kvn\\AppData\\Local\\Programs\\Python\\Python310\\lib\\_aix_support.py',
   'PYMODULE'),
  ('_bootsubprocess',
   'C:\\Users\\kvn\\AppData\\Local\\Programs\\Python\\Python310\\lib\\_bootsubprocess.py',
   'PYMODULE'),
  ('_osx_support',
   'C:\\Users\\kvn\\AppData\\Local\\Programs\\Python\\Python310\\lib\\_osx_support.py',
   'PYMODULE'),
  ('platform',
   'C:\\Users\\kvn\\AppData\\Local\\Programs\\Python\\Python310\\lib\\platform.py',
   'PYMODULE'),
  ('plistlib',
   'C:\\Users\\kvn\\AppData\\Local\\Programs\\Python\\Python310\\lib\\plistlib.py',
   'PYMODULE'),
  ('pkgutil',
   'C:\\Users\\kvn\\AppData\\Local\\Programs\\Python\\Python310\\lib\\pkgutil.py',
   'PYMODULE'),
  ('zipimport',
   'C:\\Users\\kvn\\AppData\\Local\\Programs\\Python\\Python310\\lib\\zipimport.py',
   'PYMODULE'),
  ('runpy',
   'C:\\Users\\kvn\\AppData\\Local\\Programs\\Python\\Python310\\lib\\runpy.py',
   'PYMODULE'),
  ('glob',
   'C:\\Users\\kvn\\AppData\\Local\\Programs\\Python\\Python310\\lib\\glob.py',
   'PYMODULE'),
  ('code',
   'C:\\Users\\kvn\\AppData\\Local\\Programs\\Python\\Python310\\lib\\code.py',
   'PYMODULE'),
  ('codeop',
   'C:\\Users\\kvn\\AppData\\Local\\Programs\\Python\\Python310\\lib\\codeop.py',
   'PYMODULE'),
  ('bdb',
   'C:\\Users\\kvn\\AppData\\Local\\Programs\\Python\\Python310\\lib\\bdb.py',
   'PYMODULE'),
  ('cmd',
   'C:\\Users\\kvn\\AppData\\Local\\Programs\\Python\\Python310\\lib\\cmd.py',
   'PYMODULE'),
  ('difflib',
   'C:\\Users\\kvn\\AppData\\Local\\Programs\\Python\\Python310\\lib\\difflib.py',
   'PYMODULE'),
  ('__future__',
   'C:\\Users\\kvn\\AppData\\Local\\Programs\\Python\\Python310\\lib\\__future__.py',
   'PYMODULE'),
  ('_compat_pickle',
   'C:\\Users\\kvn\\AppData\\Local\\Programs\\Python\\Python310\\lib\\_compat_pickle.py',
   'PYMODULE'),
  ('multiprocessing.popen_fork',
   'C:\\Users\\kvn\\AppData\\Local\\Programs\\Python\\Python310\\lib\\multiprocessing\\popen_fork.py',
   'PYMODULE'),
  ('multiprocessing.popen_spawn_win32',
   'C:\\Users\\kvn\\AppData\\Local\\Programs\\Python\\Python310\\lib\\multiprocessing\\popen_spawn_win32.py',
   'PYMODULE'),
  ('subprocess',
   'C:\\Users\\kvn\\AppData\\Local\\Programs\\Python\\Python310\\lib\\subprocess.py',
   'PYMODULE'),
  ('multiprocessing.spawn',
   'C:\\Users\\kvn\\AppData\\Local\\Programs\\Python\\Python310\\lib\\multiprocessing\\spawn.py',
   'PYMODULE'),
  ('multiprocessing',
   'C:\\Users\\kvn\\AppData\\Local\\Programs\\Python\\Python310\\lib\\multiprocessing\\__init__.py',
   'PYMODULE'),
  ('stringprep',
   'C:\\Users\\kvn\\AppData\\Local\\Programs\\Python\\Python310\\lib\\stringprep.py',
   'PYMODULE'),
  ('_py_abc',
   'C:\\Users\\kvn\\AppData\\Local\\Programs\\Python\\Python310\\lib\\_py_abc.py',
   'PYMODULE'),
  ('tracemalloc',
   'C:\\Users\\kvn\\AppData\\Local\\Programs\\Python\\Python310\\lib\\tracemalloc.py',
   'PYMODULE'),
  ('selenium.webdriver.remote.webelement',
   'C:\\Users\\kvn\\AppData\\Local\\Programs\\Python\\Python310\\lib\\site-packages\\selenium\\webdriver\\remote\\webelement.py',
   'PYMODULE'),
  ('selenium.webdriver.remote',
   'C:\\Users\\kvn\\AppData\\Local\\Programs\\Python\\Python310\\lib\\site-packages\\selenium\\webdriver\\remote\\__init__.py',
   'PYMODULE'),
  ('selenium.webdriver.remote.utils',
   'C:\\Users\\kvn\\AppData\\Local\\Programs\\Python\\Python310\\lib\\site-packages\\selenium\\webdriver\\remote\\utils.py',
   'PYMODULE'),
  ('selenium.webdriver.remote.shadowroot',
   'C:\\Users\\kvn\\AppData\\Local\\Programs\\Python\\Python310\\lib\\site-packages\\selenium\\webdriver\\remote\\shadowroot.py',
   'PYMODULE'),
  ('selenium.webdriver.remote.command',
   'C:\\Users\\kvn\\AppData\\Local\\Programs\\Python\\Python310\\lib\\site-packages\\selenium\\webdriver\\remote\\command.py',
   'PYMODULE'),
  ('selenium.webdriver.common.utils',
   'C:\\Users\\kvn\\AppData\\Local\\Programs\\Python\\Python310\\lib\\site-packages\\selenium\\webdriver\\common\\utils.py',
   'PYMODULE'),
  ('selenium.webdriver.common',
   'C:\\Users\\kvn\\AppData\\Local\\Programs\\Python\\Python310\\lib\\site-packages\\selenium\\webdriver\\common\\__init__.py',
   'PYMODULE'),
  ('selenium.webdriver.common.service',
   'C:\\Users\\kvn\\AppData\\Local\\Programs\\Python\\Python310\\lib\\site-packages\\selenium\\webdriver\\common\\service.py',
   'PYMODULE'),
  ('selenium.types',
   'C:\\Users\\kvn\\AppData\\Local\\Programs\\Python\\Python310\\lib\\site-packages\\selenium\\types.py',
   'PYMODULE'),
  ('selenium.common.exceptions',
   'C:\\Users\\kvn\\AppData\\Local\\Programs\\Python\\Python310\\lib\\site-packages\\selenium\\common\\exceptions.py',
   'PYMODULE'),
  ('selenium.common',
   'C:\\Users\\kvn\\AppData\\Local\\Programs\\Python\\Python310\\lib\\site-packages\\selenium\\common\\__init__.py',
   'PYMODULE'),
  ('selenium.webdriver.common.keys',
   'C:\\Users\\kvn\\AppData\\Local\\Programs\\Python\\Python310\\lib\\site-packages\\selenium\\webdriver\\common\\keys.py',
   'PYMODULE'),
  ('os',
   'C:\\Users\\kvn\\AppData\\Local\\Programs\\Python\\Python310\\lib\\os.py',
   'PYMODULE'),
  ('requests',
   'C:\\Users\\kvn\\AppData\\Local\\Programs\\Python\\Python310\\lib\\site-packages\\requests\\__init__.py',
   'PYMODULE'),
  ('requests.status_codes',
   'C:\\Users\\kvn\\AppData\\Local\\Programs\\Python\\Python310\\lib\\site-packages\\requests\\status_codes.py',
   'PYMODULE'),
  ('requests.structures',
   'C:\\Users\\kvn\\AppData\\Local\\Programs\\Python\\Python310\\lib\\site-packages\\requests\\structures.py',
   'PYMODULE'),
  ('requests.compat',
   'C:\\Users\\kvn\\AppData\\Local\\Programs\\Python\\Python310\\lib\\site-packages\\requests\\compat.py',
   'PYMODULE'),
  ('http.cookies',
   'C:\\Users\\kvn\\AppData\\Local\\Programs\\Python\\Python310\\lib\\http\\cookies.py',
   'PYMODULE'),
  ('requests.api',
   'C:\\Users\\kvn\\AppData\\Local\\Programs\\Python\\Python310\\lib\\site-packages\\requests\\api.py',
   'PYMODULE'),
  ('requests.sessions',
   'C:\\Users\\kvn\\AppData\\Local\\Programs\\Python\\Python310\\lib\\site-packages\\requests\\sessions.py',
   'PYMODULE'),
  ('requests.adapters',
   'C:\\Users\\kvn\\AppData\\Local\\Programs\\Python\\Python310\\lib\\site-packages\\requests\\adapters.py',
   'PYMODULE'),
  ('urllib3.contrib.socks',
   'C:\\Users\\kvn\\AppData\\Local\\Programs\\Python\\Python310\\lib\\site-packages\\urllib3\\contrib\\socks.py',
   'PYMODULE'),
  ('urllib3.util.url',
   'C:\\Users\\kvn\\AppData\\Local\\Programs\\Python\\Python310\\lib\\site-packages\\urllib3\\util\\url.py',
   'PYMODULE'),
  ('idna',
   'C:\\Users\\kvn\\AppData\\Local\\Programs\\Python\\Python310\\lib\\site-packages\\idna\\__init__.py',
   'PYMODULE'),
  ('idna.intranges',
   'C:\\Users\\kvn\\AppData\\Local\\Programs\\Python\\Python310\\lib\\site-packages\\idna\\intranges.py',
   'PYMODULE'),
  ('idna.core',
   'C:\\Users\\kvn\\AppData\\Local\\Programs\\Python\\Python310\\lib\\site-packages\\idna\\core.py',
   'PYMODULE'),
  ('idna.uts46data',
   'C:\\Users\\kvn\\AppData\\Local\\Programs\\Python\\Python310\\lib\\site-packages\\idna\\uts46data.py',
   'PYMODULE'),
  ('idna.idnadata',
   'C:\\Users\\kvn\\AppData\\Local\\Programs\\Python\\Python310\\lib\\site-packages\\idna\\idnadata.py',
   'PYMODULE'),
  ('idna.package_data',
   'C:\\Users\\kvn\\AppData\\Local\\Programs\\Python\\Python310\\lib\\site-packages\\idna\\package_data.py',
   'PYMODULE'),
  ('urllib3.packages.six',
   'C:\\Users\\kvn\\AppData\\Local\\Programs\\Python\\Python310\\lib\\site-packages\\urllib3\\packages\\six.py',
   'PYMODULE'),
  ('urllib3.packages',
   'C:\\Users\\kvn\\AppData\\Local\\Programs\\Python\\Python310\\lib\\site-packages\\urllib3\\packages\\__init__.py',
   'PYMODULE'),
  ('urllib3.connectionpool',
   'C:\\Users\\kvn\\AppData\\Local\\Programs\\Python\\Python310\\lib\\site-packages\\urllib3\\connectionpool.py',
   'PYMODULE'),
  ('urllib3.util.timeout',
   'C:\\Users\\kvn\\AppData\\Local\\Programs\\Python\\Python310\\lib\\site-packages\\urllib3\\util\\timeout.py',
   'PYMODULE'),
  ('urllib3.util.ssl_match_hostname',
   'C:\\Users\\kvn\\AppData\\Local\\Programs\\Python\\Python310\\lib\\site-packages\\urllib3\\util\\ssl_match_hostname.py',
   'PYMODULE'),
  ('ipaddress',
   'C:\\Users\\kvn\\AppData\\Local\\Programs\\Python\\Python310\\lib\\ipaddress.py',
   'PYMODULE'),
  ('urllib3.util.response',
   'C:\\Users\\kvn\\AppData\\Local\\Programs\\Python\\Python310\\lib\\site-packages\\urllib3\\util\\response.py',
   'PYMODULE'),
  ('urllib3.util.request',
   'C:\\Users\\kvn\\AppData\\Local\\Programs\\Python\\Python310\\lib\\site-packages\\urllib3\\util\\request.py',
   'PYMODULE'),
  ('urllib3.util.queue',
   'C:\\Users\\kvn\\AppData\\Local\\Programs\\Python\\Python310\\lib\\site-packages\\urllib3\\util\\queue.py',
   'PYMODULE'),
  ('urllib3.util.proxy',
   'C:\\Users\\kvn\\AppData\\Local\\Programs\\Python\\Python310\\lib\\site-packages\\urllib3\\util\\proxy.py',
   'PYMODULE'),
  ('urllib3.util.ssl_',
   'C:\\Users\\kvn\\AppData\\Local\\Programs\\Python\\Python310\\lib\\site-packages\\urllib3\\util\\ssl_.py',
   'PYMODULE'),
  ('urllib3.util.ssltransport',
   'C:\\Users\\kvn\\AppData\\Local\\Programs\\Python\\Python310\\lib\\site-packages\\urllib3\\util\\ssltransport.py',
   'PYMODULE'),
  ('urllib3.util.connection',
   'C:\\Users\\kvn\\AppData\\Local\\Programs\\Python\\Python310\\lib\\site-packages\\urllib3\\util\\connection.py',
   'PYMODULE'),
  ('urllib3.util.wait',
   'C:\\Users\\kvn\\AppData\\Local\\Programs\\Python\\Python310\\lib\\site-packages\\urllib3\\util\\wait.py',
   'PYMODULE'),
  ('urllib3.contrib._appengine_environ',
   'C:\\Users\\kvn\\AppData\\Local\\Programs\\Python\\Python310\\lib\\site-packages\\urllib3\\contrib\\_appengine_environ.py',
   'PYMODULE'),
  ('urllib3.request',
   'C:\\Users\\kvn\\AppData\\Local\\Programs\\Python\\Python310\\lib\\site-packages\\urllib3\\request.py',
   'PYMODULE'),
  ('urllib3.filepost',
   'C:\\Users\\kvn\\AppData\\Local\\Programs\\Python\\Python310\\lib\\site-packages\\urllib3\\filepost.py',
   'PYMODULE'),
  ('urllib3.fields',
   'C:\\Users\\kvn\\AppData\\Local\\Programs\\Python\\Python310\\lib\\site-packages\\urllib3\\fields.py',
   'PYMODULE'),
  ('urllib3.connection',
   'C:\\Users\\kvn\\AppData\\Local\\Programs\\Python\\Python310\\lib\\site-packages\\urllib3\\connection.py',
   'PYMODULE'),
  ('urllib3._version',
   'C:\\Users\\kvn\\AppData\\Local\\Programs\\Python\\Python310\\lib\\site-packages\\urllib3\\_version.py',
   'PYMODULE'),
  ('urllib3._collections',
   'C:\\Users\\kvn\\AppData\\Local\\Programs\\Python\\Python310\\lib\\site-packages\\urllib3\\_collections.py',
   'PYMODULE'),
  ('urllib3.util.retry',
   'C:\\Users\\kvn\\AppData\\Local\\Programs\\Python\\Python310\\lib\\site-packages\\urllib3\\util\\retry.py',
   'PYMODULE'),
  ('urllib3.util',
   'C:\\Users\\kvn\\AppData\\Local\\Programs\\Python\\Python310\\lib\\site-packages\\urllib3\\util\\__init__.py',
   'PYMODULE'),
  ('urllib3.response',
   'C:\\Users\\kvn\\AppData\\Local\\Programs\\Python\\Python310\\lib\\site-packages\\urllib3\\response.py',
   'PYMODULE'),
  ('urllib3.poolmanager',
   'C:\\Users\\kvn\\AppData\\Local\\Programs\\Python\\Python310\\lib\\site-packages\\urllib3\\poolmanager.py',
   'PYMODULE'),
  ('requests._internal_utils',
   'C:\\Users\\kvn\\AppData\\Local\\Programs\\Python\\Python310\\lib\\site-packages\\requests\\_internal_utils.py',
   'PYMODULE'),
  ('requests.hooks',
   'C:\\Users\\kvn\\AppData\\Local\\Programs\\Python\\Python310\\lib\\site-packages\\requests\\hooks.py',
   'PYMODULE'),
  ('requests.cookies',
   'C:\\Users\\kvn\\AppData\\Local\\Programs\\Python\\Python310\\lib\\site-packages\\requests\\cookies.py',
   'PYMODULE'),
  ('requests.auth',
   'C:\\Users\\kvn\\AppData\\Local\\Programs\\Python\\Python310\\lib\\site-packages\\requests\\auth.py',
   'PYMODULE'),
  ('requests.models',
   'C:\\Users\\kvn\\AppData\\Local\\Programs\\Python\\Python310\\lib\\site-packages\\requests\\models.py',
   'PYMODULE'),
  ('requests.packages',
   'C:\\Users\\kvn\\AppData\\Local\\Programs\\Python\\Python310\\lib\\site-packages\\requests\\packages.py',
   'PYMODULE'),
  ('requests.utils',
   'C:\\Users\\kvn\\AppData\\Local\\Programs\\Python\\Python310\\lib\\site-packages\\requests\\utils.py',
   'PYMODULE'),
  ('requests.certs',
   'C:\\Users\\kvn\\AppData\\Local\\Programs\\Python\\Python310\\lib\\site-packages\\requests\\certs.py',
   'PYMODULE'),
  ('certifi',
   'C:\\Users\\kvn\\AppData\\Local\\Programs\\Python\\Python310\\lib\\site-packages\\certifi\\__init__.py',
   'PYMODULE'),
  ('certifi.core',
   'C:\\Users\\kvn\\AppData\\Local\\Programs\\Python\\Python310\\lib\\site-packages\\certifi\\core.py',
   'PYMODULE'),
  ('importlib.resources',
   'C:\\Users\\kvn\\AppData\\Local\\Programs\\Python\\Python310\\lib\\importlib\\resources.py',
   'PYMODULE'),
  ('requests.__version__',
   'C:\\Users\\kvn\\AppData\\Local\\Programs\\Python\\Python310\\lib\\site-packages\\requests\\__version__.py',
   'PYMODULE'),
  ('urllib3.exceptions',
   'C:\\Users\\kvn\\AppData\\Local\\Programs\\Python\\Python310\\lib\\site-packages\\urllib3\\exceptions.py',
   'PYMODULE'),
  ('cryptography',
   'C:\\Users\\kvn\\AppData\\Local\\Programs\\Python\\Python310\\lib\\site-packages\\cryptography\\__init__.py',
   'PYMODULE'),
  ('cryptography.hazmat.bindings.openssl',
   'C:\\Users\\kvn\\AppData\\Local\\Programs\\Python\\Python310\\lib\\site-packages\\cryptography\\hazmat\\bindings\\openssl\\__init__.py',
   'PYMODULE'),
  ('cryptography.hazmat.bindings',
   'C:\\Users\\kvn\\AppData\\Local\\Programs\\Python\\Python310\\lib\\site-packages\\cryptography\\hazmat\\bindings\\__init__.py',
   'PYMODULE'),
  ('cryptography.hazmat',
   'C:\\Users\\kvn\\AppData\\Local\\Programs\\Python\\Python310\\lib\\site-packages\\cryptography\\hazmat\\__init__.py',
   'PYMODULE'),
  ('cryptography.hazmat.bindings.openssl.binding',
   'C:\\Users\\kvn\\AppData\\Local\\Programs\\Python\\Python310\\lib\\site-packages\\cryptography\\hazmat\\bindings\\openssl\\binding.py',
   'PYMODULE'),
  ('cryptography.exceptions',
   'C:\\Users\\kvn\\AppData\\Local\\Programs\\Python\\Python310\\lib\\site-packages\\cryptography\\exceptions.py',
   'PYMODULE'),
  ('cryptography.hazmat.bindings.openssl._conditional',
   'C:\\Users\\kvn\\AppData\\Local\\Programs\\Python\\Python310\\lib\\site-packages\\cryptography\\hazmat\\bindings\\openssl\\_conditional.py',
   'PYMODULE'),
  ('cryptography.hazmat.backends.openssl.utils',
   'C:\\Users\\kvn\\AppData\\Local\\Programs\\Python\\Python310\\lib\\site-packages\\cryptography\\hazmat\\backends\\openssl\\utils.py',
   'PYMODULE'),
  ('cryptography.hazmat.primitives.asymmetric.utils',
   'C:\\Users\\kvn\\AppData\\Local\\Programs\\Python\\Python310\\lib\\site-packages\\cryptography\\hazmat\\primitives\\asymmetric\\utils.py',
   'PYMODULE'),
  ('cryptography.hazmat.primitives.asymmetric',
   'C:\\Users\\kvn\\AppData\\Local\\Programs\\Python\\Python310\\lib\\site-packages\\cryptography\\hazmat\\primitives\\asymmetric\\__init__.py',
   'PYMODULE'),
  ('cryptography.hazmat.primitives.asymmetric.x448',
   'C:\\Users\\kvn\\AppData\\Local\\Programs\\Python\\Python310\\lib\\site-packages\\cryptography\\hazmat\\primitives\\asymmetric\\x448.py',
   'PYMODULE'),
  ('cryptography.hazmat.primitives._serialization',
   'C:\\Users\\kvn\\AppData\\Local\\Programs\\Python\\Python310\\lib\\site-packages\\cryptography\\hazmat\\primitives\\_serialization.py',
   'PYMODULE'),
  ('cryptography.hazmat.primitives.asymmetric.x25519',
   'C:\\Users\\kvn\\AppData\\Local\\Programs\\Python\\Python310\\lib\\site-packages\\cryptography\\hazmat\\primitives\\asymmetric\\x25519.py',
   'PYMODULE'),
  ('cryptography.hazmat.primitives.asymmetric.rsa',
   'C:\\Users\\kvn\\AppData\\Local\\Programs\\Python\\Python310\\lib\\site-packages\\cryptography\\hazmat\\primitives\\asymmetric\\rsa.py',
   'PYMODULE'),
  ('cryptography.hazmat.primitives._asymmetric',
   'C:\\Users\\kvn\\AppData\\Local\\Programs\\Python\\Python310\\lib\\site-packages\\cryptography\\hazmat\\primitives\\_asymmetric.py',
   'PYMODULE'),
  ('cryptography.hazmat.primitives.asymmetric.ed448',
   'C:\\Users\\kvn\\AppData\\Local\\Programs\\Python\\Python310\\lib\\site-packages\\cryptography\\hazmat\\primitives\\asymmetric\\ed448.py',
   'PYMODULE'),
  ('cryptography.hazmat.primitives.asymmetric.ed25519',
   'C:\\Users\\kvn\\AppData\\Local\\Programs\\Python\\Python310\\lib\\site-packages\\cryptography\\hazmat\\primitives\\asymmetric\\ed25519.py',
   'PYMODULE'),
  ('cryptography.hazmat.primitives.asymmetric.ec',
   'C:\\Users\\kvn\\AppData\\Local\\Programs\\Python\\Python310\\lib\\site-packages\\cryptography\\hazmat\\primitives\\asymmetric\\ec.py',
   'PYMODULE'),
  ('cryptography.hazmat._oid',
   'C:\\Users\\kvn\\AppData\\Local\\Programs\\Python\\Python310\\lib\\site-packages\\cryptography\\hazmat\\_oid.py',
   'PYMODULE'),
  ('cryptography.hazmat.primitives.asymmetric.dsa',
   'C:\\Users\\kvn\\AppData\\Local\\Programs\\Python\\Python310\\lib\\site-packages\\cryptography\\hazmat\\primitives\\asymmetric\\dsa.py',
   'PYMODULE'),
  ('cryptography.hazmat.primitives.asymmetric.dh',
   'C:\\Users\\kvn\\AppData\\Local\\Programs\\Python\\Python310\\lib\\site-packages\\cryptography\\hazmat\\primitives\\asymmetric\\dh.py',
   'PYMODULE'),
  ('cryptography.hazmat.primitives.serialization',
   'C:\\Users\\kvn\\AppData\\Local\\Programs\\Python\\Python310\\lib\\site-packages\\cryptography\\hazmat\\primitives\\serialization\\__init__.py',
   'PYMODULE'),
  ('cryptography.hazmat.primitives.serialization.pkcs7',
   'C:\\Users\\kvn\\AppData\\Local\\Programs\\Python\\Python310\\lib\\site-packages\\cryptography\\hazmat\\primitives\\serialization\\pkcs7.py',
   'PYMODULE'),
  ('cryptography.hazmat.primitives.serialization.ssh',
   'C:\\Users\\kvn\\AppData\\Local\\Programs\\Python\\Python310\\lib\\site-packages\\cryptography\\hazmat\\primitives\\serialization\\ssh.py',
   'PYMODULE'),
  ('cryptography.hazmat.primitives.ciphers.modes',
   'C:\\Users\\kvn\\AppData\\Local\\Programs\\Python\\Python310\\lib\\site-packages\\cryptography\\hazmat\\primitives\\ciphers\\modes.py',
   'PYMODULE'),
  ('cryptography.hazmat.primitives._cipheralgorithm',
   'C:\\Users\\kvn\\AppData\\Local\\Programs\\Python\\Python310\\lib\\site-packages\\cryptography\\hazmat\\primitives\\_cipheralgorithm.py',
   'PYMODULE'),
  ('cryptography.hazmat.primitives.ciphers.algorithms',
   'C:\\Users\\kvn\\AppData\\Local\\Programs\\Python\\Python310\\lib\\site-packages\\cryptography\\hazmat\\primitives\\ciphers\\algorithms.py',
   'PYMODULE'),
  ('cryptography.hazmat.primitives.ciphers',
   'C:\\Users\\kvn\\AppData\\Local\\Programs\\Python\\Python310\\lib\\site-packages\\cryptography\\hazmat\\primitives\\ciphers\\__init__.py',
   'PYMODULE'),
  ('cryptography.hazmat.primitives.ciphers.base',
   'C:\\Users\\kvn\\AppData\\Local\\Programs\\Python\\Python310\\lib\\site-packages\\cryptography\\hazmat\\primitives\\ciphers\\base.py',
   'PYMODULE'),
  ('cryptography.hazmat.primitives.serialization.base',
   'C:\\Users\\kvn\\AppData\\Local\\Programs\\Python\\Python310\\lib\\site-packages\\cryptography\\hazmat\\primitives\\serialization\\base.py',
   'PYMODULE'),
  ('cryptography.hazmat.primitives.asymmetric.types',
   'C:\\Users\\kvn\\AppData\\Local\\Programs\\Python\\Python310\\lib\\site-packages\\cryptography\\hazmat\\primitives\\asymmetric\\types.py',
   'PYMODULE'),
  ('cryptography.hazmat.primitives.hashes',
   'C:\\Users\\kvn\\AppData\\Local\\Programs\\Python\\Python310\\lib\\site-packages\\cryptography\\hazmat\\primitives\\hashes.py',
   'PYMODULE'),
  ('cryptography.hazmat.primitives',
   'C:\\Users\\kvn\\AppData\\Local\\Programs\\Python\\Python310\\lib\\site-packages\\cryptography\\hazmat\\primitives\\__init__.py',
   'PYMODULE'),
  ('cryptography.hazmat.primitives.constant_time',
   'C:\\Users\\kvn\\AppData\\Local\\Programs\\Python\\Python310\\lib\\site-packages\\cryptography\\hazmat\\primitives\\constant_time.py',
   'PYMODULE'),
  ('cryptography.hazmat.backends.openssl.aead',
   'C:\\Users\\kvn\\AppData\\Local\\Programs\\Python\\Python310\\lib\\site-packages\\cryptography\\hazmat\\backends\\openssl\\aead.py',
   'PYMODULE'),
  ('cryptography.hazmat.primitives.ciphers.aead',
   'C:\\Users\\kvn\\AppData\\Local\\Programs\\Python\\Python310\\lib\\site-packages\\cryptography\\hazmat\\primitives\\ciphers\\aead.py',
   'PYMODULE'),
  ('cryptography.hazmat.backends.openssl.ed25519',
   'C:\\Users\\kvn\\AppData\\Local\\Programs\\Python\\Python310\\lib\\site-packages\\cryptography\\hazmat\\backends\\openssl\\ed25519.py',
   'PYMODULE'),
  ('cryptography.hazmat.backends.openssl.decode_asn1',
   'C:\\Users\\kvn\\AppData\\Local\\Programs\\Python\\Python310\\lib\\site-packages\\cryptography\\hazmat\\backends\\openssl\\decode_asn1.py',
   'PYMODULE'),
  ('cryptography.hazmat.backends.openssl.x448',
   'C:\\Users\\kvn\\AppData\\Local\\Programs\\Python\\Python310\\lib\\site-packages\\cryptography\\hazmat\\backends\\openssl\\x448.py',
   'PYMODULE'),
  ('cryptography.hazmat.backends.openssl.hmac',
   'C:\\Users\\kvn\\AppData\\Local\\Programs\\Python\\Python310\\lib\\site-packages\\cryptography\\hazmat\\backends\\openssl\\hmac.py',
   'PYMODULE'),
  ('cryptography.hazmat.backends.openssl.x509',
   'C:\\Users\\kvn\\AppData\\Local\\Programs\\Python\\Python310\\lib\\site-packages\\cryptography\\hazmat\\backends\\openssl\\x509.py',
   'PYMODULE'),
  ('cryptography.hazmat.backends',
   'C:\\Users\\kvn\\AppData\\Local\\Programs\\Python\\Python310\\lib\\site-packages\\cryptography\\hazmat\\backends\\__init__.py',
   'PYMODULE'),
  ('cryptography.hazmat.backends.interfaces',
   'C:\\Users\\kvn\\AppData\\Local\\Programs\\Python\\Python310\\lib\\site-packages\\cryptography\\hazmat\\backends\\interfaces.py',
   'PYMODULE'),
  ('cryptography.hazmat.backends.openssl.dh',
   'C:\\Users\\kvn\\AppData\\Local\\Programs\\Python\\Python310\\lib\\site-packages\\cryptography\\hazmat\\backends\\openssl\\dh.py',
   'PYMODULE'),
  ('cryptography.hazmat.backends.openssl.backend',
   'C:\\Users\\kvn\\AppData\\Local\\Programs\\Python\\Python310\\lib\\site-packages\\cryptography\\hazmat\\backends\\openssl\\backend.py',
   'PYMODULE'),
  ('cryptography.x509.base',
   'C:\\Users\\kvn\\AppData\\Local\\Programs\\Python\\Python310\\lib\\site-packages\\cryptography\\x509\\base.py',
   'PYMODULE'),
  ('cryptography.x509.oid',
   'C:\\Users\\kvn\\AppData\\Local\\Programs\\Python\\Python310\\lib\\site-packages\\cryptography\\x509\\oid.py',
   'PYMODULE'),
  ('cryptography.x509.name',
   'C:\\Users\\kvn\\AppData\\Local\\Programs\\Python\\Python310\\lib\\site-packages\\cryptography\\x509\\name.py',
   'PYMODULE'),
  ('cryptography.x509.extensions',
   'C:\\Users\\kvn\\AppData\\Local\\Programs\\Python\\Python310\\lib\\site-packages\\cryptography\\x509\\extensions.py',
   'PYMODULE'),
  ('cryptography.x509.general_name',
   'C:\\Users\\kvn\\AppData\\Local\\Programs\\Python\\Python310\\lib\\site-packages\\cryptography\\x509\\general_name.py',
   'PYMODULE'),
  ('cryptography.x509.certificate_transparency',
   'C:\\Users\\kvn\\AppData\\Local\\Programs\\Python\\Python310\\lib\\site-packages\\cryptography\\x509\\certificate_transparency.py',
   'PYMODULE'),
  ('cryptography.hazmat.primitives.serialization.pkcs12',
   'C:\\Users\\kvn\\AppData\\Local\\Programs\\Python\\Python310\\lib\\site-packages\\cryptography\\hazmat\\primitives\\serialization\\pkcs12.py',
   'PYMODULE'),
  ('cryptography.hazmat.primitives.kdf.scrypt',
   'C:\\Users\\kvn\\AppData\\Local\\Programs\\Python\\Python310\\lib\\site-packages\\cryptography\\hazmat\\primitives\\kdf\\scrypt.py',
   'PYMODULE'),
  ('cryptography.hazmat.primitives.kdf',
   'C:\\Users\\kvn\\AppData\\Local\\Programs\\Python\\Python310\\lib\\site-packages\\cryptography\\hazmat\\primitives\\kdf\\__init__.py',
   'PYMODULE'),
  ('cryptography.hazmat.primitives.asymmetric.padding',
   'C:\\Users\\kvn\\AppData\\Local\\Programs\\Python\\Python310\\lib\\site-packages\\cryptography\\hazmat\\primitives\\asymmetric\\padding.py',
   'PYMODULE'),
  ('cryptography.hazmat.backends.openssl.cmac',
   'C:\\Users\\kvn\\AppData\\Local\\Programs\\Python\\Python310\\lib\\site-packages\\cryptography\\hazmat\\backends\\openssl\\cmac.py',
   'PYMODULE'),
  ('cryptography.hazmat.backends.openssl.ec',
   'C:\\Users\\kvn\\AppData\\Local\\Programs\\Python\\Python310\\lib\\site-packages\\cryptography\\hazmat\\backends\\openssl\\ec.py',
   'PYMODULE'),
  ('cryptography.hazmat.backends.openssl.rsa',
   'C:\\Users\\kvn\\AppData\\Local\\Programs\\Python\\Python310\\lib\\site-packages\\cryptography\\hazmat\\backends\\openssl\\rsa.py',
   'PYMODULE'),
  ('cryptography.hazmat.backends.openssl.hashes',
   'C:\\Users\\kvn\\AppData\\Local\\Programs\\Python\\Python310\\lib\\site-packages\\cryptography\\hazmat\\backends\\openssl\\hashes.py',
   'PYMODULE'),
  ('cryptography.hazmat.backends.openssl.encode_asn1',
   'C:\\Users\\kvn\\AppData\\Local\\Programs\\Python\\Python310\\lib\\site-packages\\cryptography\\hazmat\\backends\\openssl\\encode_asn1.py',
   'PYMODULE'),
  ('cryptography.hazmat.backends.openssl.ed448',
   'C:\\Users\\kvn\\AppData\\Local\\Programs\\Python\\Python310\\lib\\site-packages\\cryptography\\hazmat\\backends\\openssl\\ed448.py',
   'PYMODULE'),
  ('cryptography.hazmat.backends.openssl',
   'C:\\Users\\kvn\\AppData\\Local\\Programs\\Python\\Python310\\lib\\site-packages\\cryptography\\hazmat\\backends\\openssl\\__init__.py',
   'PYMODULE'),
  ('cryptography.hazmat.backends.openssl.poly1305',
   'C:\\Users\\kvn\\AppData\\Local\\Programs\\Python\\Python310\\lib\\site-packages\\cryptography\\hazmat\\backends\\openssl\\poly1305.py',
   'PYMODULE'),
  ('cryptography.hazmat.backends.openssl.x25519',
   'C:\\Users\\kvn\\AppData\\Local\\Programs\\Python\\Python310\\lib\\site-packages\\cryptography\\hazmat\\backends\\openssl\\x25519.py',
   'PYMODULE'),
  ('cryptography.hazmat.backends.openssl.ciphers',
   'C:\\Users\\kvn\\AppData\\Local\\Programs\\Python\\Python310\\lib\\site-packages\\cryptography\\hazmat\\backends\\openssl\\ciphers.py',
   'PYMODULE'),
  ('cryptography.hazmat.backends.openssl.dsa',
   'C:\\Users\\kvn\\AppData\\Local\\Programs\\Python\\Python310\\lib\\site-packages\\cryptography\\hazmat\\backends\\openssl\\dsa.py',
   'PYMODULE'),
  ('cryptography.x509',
   'C:\\Users\\kvn\\AppData\\Local\\Programs\\Python\\Python310\\lib\\site-packages\\cryptography\\x509\\__init__.py',
   'PYMODULE'),
  ('cryptography.utils',
   'C:\\Users\\kvn\\AppData\\Local\\Programs\\Python\\Python310\\lib\\site-packages\\cryptography\\utils.py',
   'PYMODULE'),
  ('cryptography.__about__',
   'C:\\Users\\kvn\\AppData\\Local\\Programs\\Python\\Python310\\lib\\site-packages\\cryptography\\__about__.py',
   'PYMODULE'),
  ('urllib3.contrib.pyopenssl',
   'C:\\Users\\kvn\\AppData\\Local\\Programs\\Python\\Python310\\lib\\site-packages\\urllib3\\contrib\\pyopenssl.py',
   'PYMODULE'),
  ('OpenSSL.crypto',
   'C:\\Users\\kvn\\AppData\\Local\\Programs\\Python\\Python310\\lib\\site-packages\\OpenSSL\\crypto.py',
   'PYMODULE'),
  ('OpenSSL',
   'C:\\Users\\kvn\\AppData\\Local\\Programs\\Python\\Python310\\lib\\site-packages\\OpenSSL\\__init__.py',
   'PYMODULE'),
  ('OpenSSL.version',
   'C:\\Users\\kvn\\AppData\\Local\\Programs\\Python\\Python310\\lib\\site-packages\\OpenSSL\\version.py',
   'PYMODULE'),
  ('OpenSSL._util',
   'C:\\Users\\kvn\\AppData\\Local\\Programs\\Python\\Python310\\lib\\site-packages\\OpenSSL\\_util.py',
   'PYMODULE'),
  ('urllib3.packages.backports.makefile',
   'C:\\Users\\kvn\\AppData\\Local\\Programs\\Python\\Python310\\lib\\site-packages\\urllib3\\packages\\backports\\makefile.py',
   'PYMODULE'),
  ('urllib3.packages.backports',
   'C:\\Users\\kvn\\AppData\\Local\\Programs\\Python\\Python310\\lib\\site-packages\\urllib3\\packages\\backports\\__init__.py',
   'PYMODULE'),
  ('OpenSSL.SSL',
   'C:\\Users\\kvn\\AppData\\Local\\Programs\\Python\\Python310\\lib\\site-packages\\OpenSSL\\SSL.py',
   'PYMODULE'),
  ('urllib3.contrib',
   'C:\\Users\\kvn\\AppData\\Local\\Programs\\Python\\Python310\\lib\\site-packages\\urllib3\\contrib\\__init__.py',
   'PYMODULE'),
  ('charset_normalizer',
   'C:\\Users\\kvn\\AppData\\Local\\Programs\\Python\\Python310\\lib\\site-packages\\charset_normalizer\\__init__.py',
   'PYMODULE'),
  ('charset_normalizer.version',
   'C:\\Users\\kvn\\AppData\\Local\\Programs\\Python\\Python310\\lib\\site-packages\\charset_normalizer\\version.py',
   'PYMODULE'),
  ('charset_normalizer.utils',
   'C:\\Users\\kvn\\AppData\\Local\\Programs\\Python\\Python310\\lib\\site-packages\\charset_normalizer\\utils.py',
   'PYMODULE'),
  ('charset_normalizer.constant',
   'C:\\Users\\kvn\\AppData\\Local\\Programs\\Python\\Python310\\lib\\site-packages\\charset_normalizer\\constant.py',
   'PYMODULE'),
  ('charset_normalizer.assets',
   'C:\\Users\\kvn\\AppData\\Local\\Programs\\Python\\Python310\\lib\\site-packages\\charset_normalizer\\assets\\__init__.py',
   'PYMODULE'),
  ('charset_normalizer.models',
   'C:\\Users\\kvn\\AppData\\Local\\Programs\\Python\\Python310\\lib\\site-packages\\charset_normalizer\\models.py',
   'PYMODULE'),
  ('charset_normalizer.cd',
   'C:\\Users\\kvn\\AppData\\Local\\Programs\\Python\\Python310\\lib\\site-packages\\charset_normalizer\\cd.py',
   'PYMODULE'),
  ('charset_normalizer.md',
   'C:\\Users\\kvn\\AppData\\Local\\Programs\\Python\\Python310\\lib\\site-packages\\charset_normalizer\\md.py',
   'PYMODULE'),
  ('charset_normalizer.legacy',
   'C:\\Users\\kvn\\AppData\\Local\\Programs\\Python\\Python310\\lib\\site-packages\\charset_normalizer\\legacy.py',
   'PYMODULE'),
  ('charset_normalizer.api',
   'C:\\Users\\kvn\\AppData\\Local\\Programs\\Python\\Python310\\lib\\site-packages\\charset_normalizer\\api.py',
   'PYMODULE'),
  ('requests.exceptions',
   'C:\\Users\\kvn\\AppData\\Local\\Programs\\Python\\Python310\\lib\\site-packages\\requests\\exceptions.py',
   'PYMODULE'),
  ('urllib3',
   'C:\\Users\\kvn\\AppData\\Local\\Programs\\Python\\Python310\\lib\\site-packages\\urllib3\\__init__.py',
   'PYMODULE'),
  ('random',
   'C:\\Users\\kvn\\AppData\\Local\\Programs\\Python\\Python310\\lib\\random.py',
   'PYMODULE'),
  ('statistics',
   'C:\\Users\\kvn\\AppData\\Local\\Programs\\Python\\Python310\\lib\\statistics.py',
   'PYMODULE'),
  ('fractions',
   'C:\\Users\\kvn\\AppData\\Local\\Programs\\Python\\Python310\\lib\\fractions.py',
   'PYMODULE'),
  ('logging',
   'C:\\Users\\kvn\\AppData\\Local\\Programs\\Python\\Python310\\lib\\logging\\__init__.py',
   'PYMODULE'),
  ('selenium.webdriver.chrome.options',
   'C:\\Users\\kvn\\AppData\\Local\\Programs\\Python\\Python310\\lib\\site-packages\\selenium\\webdriver\\chrome\\options.py',
   'PYMODULE'),
  ('selenium.webdriver.chrome',
   'C:\\Users\\kvn\\AppData\\Local\\Programs\\Python\\Python310\\lib\\site-packages\\selenium\\webdriver\\chrome\\__init__.py',
   'PYMODULE'),
  ('selenium.webdriver.chromium.options',
   'C:\\Users\\kvn\\AppData\\Local\\Programs\\Python\\Python310\\lib\\site-packages\\selenium\\webdriver\\chromium\\options.py',
   'PYMODULE'),
  ('selenium.webdriver.chromium',
   'C:\\Users\\kvn\\AppData\\Local\\Programs\\Python\\Python310\\lib\\site-packages\\selenium\\webdriver\\chromium\\__init__.py',
   'PYMODULE'),
  ('selenium.webdriver.chromium.service',
   'C:\\Users\\kvn\\AppData\\Local\\Programs\\Python\\Python310\\lib\\site-packages\\selenium\\webdriver\\chromium\\service.py',
   'PYMODULE'),
  ('selenium.webdriver.common.options',
   'C:\\Users\\kvn\\AppData\\Local\\Programs\\Python\\Python310\\lib\\site-packages\\selenium\\webdriver\\common\\options.py',
   'PYMODULE'),
  ('selenium.webdriver.common.proxy',
   'C:\\Users\\kvn\\AppData\\Local\\Programs\\Python\\Python310\\lib\\site-packages\\selenium\\webdriver\\common\\proxy.py',
   'PYMODULE'),
  ('selenium.webdriver.remote.file_detector',
   'C:\\Users\\kvn\\AppData\\Local\\Programs\\Python\\Python310\\lib\\site-packages\\selenium\\webdriver\\remote\\file_detector.py',
   'PYMODULE'),
  ('selenium.webdriver.common.desired_capabilities',
   'C:\\Users\\kvn\\AppData\\Local\\Programs\\Python\\Python310\\lib\\site-packages\\selenium\\webdriver\\common\\desired_capabilities.py',
   'PYMODULE'),
  ('selenium.webdriver',
   'C:\\Users\\kvn\\AppData\\Local\\Programs\\Python\\Python310\\lib\\site-packages\\selenium\\webdriver\\__init__.py',
   'PYMODULE'),
  ('selenium.webdriver.common.touch_actions',
   'C:\\Users\\kvn\\AppData\\Local\\Programs\\Python\\Python310\\lib\\site-packages\\selenium\\webdriver\\common\\touch_actions.py',
   'PYMODULE'),
  ('selenium.webdriver.common.action_chains',
   'C:\\Users\\kvn\\AppData\\Local\\Programs\\Python\\Python310\\lib\\site-packages\\selenium\\webdriver\\common\\action_chains.py',
   'PYMODULE'),
  ('selenium.webdriver.common.actions.action_builder',
   'C:\\Users\\kvn\\AppData\\Local\\Programs\\Python\\Python310\\lib\\site-packages\\selenium\\webdriver\\common\\actions\\action_builder.py',
   'PYMODULE'),
  ('selenium.webdriver.common.actions.pointer_input',
   'C:\\Users\\kvn\\AppData\\Local\\Programs\\Python\\Python310\\lib\\site-packages\\selenium\\webdriver\\common\\actions\\pointer_input.py',
   'PYMODULE'),
  ('selenium.webdriver.common.actions.input_device',
   'C:\\Users\\kvn\\AppData\\Local\\Programs\\Python\\Python310\\lib\\site-packages\\selenium\\webdriver\\common\\actions\\input_device.py',
   'PYMODULE'),
  ('uuid',
   'C:\\Users\\kvn\\AppData\\Local\\Programs\\Python\\Python310\\lib\\uuid.py',
   'PYMODULE'),
  ('selenium.webdriver.common.actions.pointer_actions',
   'C:\\Users\\kvn\\AppData\\Local\\Programs\\Python\\Python310\\lib\\site-packages\\selenium\\webdriver\\common\\actions\\pointer_actions.py',
   'PYMODULE'),
  ('selenium.webdriver.common.actions.mouse_button',
   'C:\\Users\\kvn\\AppData\\Local\\Programs\\Python\\Python310\\lib\\site-packages\\selenium\\webdriver\\common\\actions\\mouse_button.py',
   'PYMODULE'),
  ('selenium.webdriver.common.actions.key_input',
   'C:\\Users\\kvn\\AppData\\Local\\Programs\\Python\\Python310\\lib\\site-packages\\selenium\\webdriver\\common\\actions\\key_input.py',
   'PYMODULE'),
  ('selenium.webdriver.common.actions.key_actions',
   'C:\\Users\\kvn\\AppData\\Local\\Programs\\Python\\Python310\\lib\\site-packages\\selenium\\webdriver\\common\\actions\\key_actions.py',
   'PYMODULE'),
  ('selenium.webdriver.common.actions.interaction',
   'C:\\Users\\kvn\\AppData\\Local\\Programs\\Python\\Python310\\lib\\site-packages\\selenium\\webdriver\\common\\actions\\interaction.py',
   'PYMODULE'),
  ('selenium.webdriver.common.actions',
   'C:\\Users\\kvn\\AppData\\Local\\Programs\\Python\\Python310\\lib\\site-packages\\selenium\\webdriver\\common\\actions\\__init__.py',
   'PYMODULE'),
  ('selenium.webdriver.wpewebkit.options',
   'C:\\Users\\kvn\\AppData\\Local\\Programs\\Python\\Python310\\lib\\site-packages\\selenium\\webdriver\\wpewebkit\\options.py',
   'PYMODULE'),
  ('selenium.webdriver.wpewebkit',
   'C:\\Users\\kvn\\AppData\\Local\\Programs\\Python\\Python310\\lib\\site-packages\\selenium\\webdriver\\wpewebkit\\__init__.py',
   'PYMODULE'),
  ('selenium.webdriver.wpewebkit.webdriver',
   'C:\\Users\\kvn\\AppData\\Local\\Programs\\Python\\Python310\\lib\\site-packages\\selenium\\webdriver\\wpewebkit\\webdriver.py',
   'PYMODULE'),
  ('selenium.webdriver.wpewebkit.service',
   'C:\\Users\\kvn\\AppData\\Local\\Programs\\Python\\Python310\\lib\\site-packages\\selenium\\webdriver\\wpewebkit\\service.py',
   'PYMODULE'),
  ('selenium.webdriver.webkitgtk.options',
   'C:\\Users\\kvn\\AppData\\Local\\Programs\\Python\\Python310\\lib\\site-packages\\selenium\\webdriver\\webkitgtk\\options.py',
   'PYMODULE'),
  ('selenium.webdriver.webkitgtk',
   'C:\\Users\\kvn\\AppData\\Local\\Programs\\Python\\Python310\\lib\\site-packages\\selenium\\webdriver\\webkitgtk\\__init__.py',
   'PYMODULE'),
  ('selenium.webdriver.webkitgtk.webdriver',
   'C:\\Users\\kvn\\AppData\\Local\\Programs\\Python\\Python310\\lib\\site-packages\\selenium\\webdriver\\webkitgtk\\webdriver.py',
   'PYMODULE'),
  ('selenium.webdriver.webkitgtk.service',
   'C:\\Users\\kvn\\AppData\\Local\\Programs\\Python\\Python310\\lib\\site-packages\\selenium\\webdriver\\webkitgtk\\service.py',
   'PYMODULE'),
  ('selenium.webdriver.safari.webdriver',
   'C:\\Users\\kvn\\AppData\\Local\\Programs\\Python\\Python310\\lib\\site-packages\\selenium\\webdriver\\safari\\webdriver.py',
   'PYMODULE'),
  ('selenium.webdriver.safari',
   'C:\\Users\\kvn\\AppData\\Local\\Programs\\Python\\Python310\\lib\\site-packages\\selenium\\webdriver\\safari\\__init__.py',
   'PYMODULE'),
  ('selenium.webdriver.safari.remote_connection',
   'C:\\Users\\kvn\\AppData\\Local\\Programs\\Python\\Python310\\lib\\site-packages\\selenium\\webdriver\\safari\\remote_connection.py',
   'PYMODULE'),
  ('selenium.webdriver.remote.remote_connection',
   'C:\\Users\\kvn\\AppData\\Local\\Programs\\Python\\Python310\\lib\\site-packages\\selenium\\webdriver\\remote\\remote_connection.py',
   'PYMODULE'),
  ('selenium.webdriver.remote.errorhandler',
   'C:\\Users\\kvn\\AppData\\Local\\Programs\\Python\\Python310\\lib\\site-packages\\selenium\\webdriver\\remote\\errorhandler.py',
   'PYMODULE'),
  ('selenium.webdriver.safari.service',
   'C:\\Users\\kvn\\AppData\\Local\\Programs\\Python\\Python310\\lib\\site-packages\\selenium\\webdriver\\safari\\service.py',
   'PYMODULE'),
  ('selenium.webdriver.safari.options',
   'C:\\Users\\kvn\\AppData\\Local\\Programs\\Python\\Python310\\lib\\site-packages\\selenium\\webdriver\\safari\\options.py',
   'PYMODULE'),
  ('selenium.webdriver.opera.webdriver',
   'C:\\Users\\kvn\\AppData\\Local\\Programs\\Python\\Python310\\lib\\site-packages\\selenium\\webdriver\\opera\\webdriver.py',
   'PYMODULE'),
  ('selenium.webdriver.opera',
   'C:\\Users\\kvn\\AppData\\Local\\Programs\\Python\\Python310\\lib\\site-packages\\selenium\\webdriver\\opera\\__init__.py',
   'PYMODULE'),
  ('selenium.webdriver.opera.options',
   'C:\\Users\\kvn\\AppData\\Local\\Programs\\Python\\Python310\\lib\\site-packages\\selenium\\webdriver\\opera\\options.py',
   'PYMODULE'),
  ('selenium.webdriver.edge.options',
   'C:\\Users\\kvn\\AppData\\Local\\Programs\\Python\\Python310\\lib\\site-packages\\selenium\\webdriver\\edge\\options.py',
   'PYMODULE'),
  ('selenium.webdriver.edge',
   'C:\\Users\\kvn\\AppData\\Local\\Programs\\Python\\Python310\\lib\\site-packages\\selenium\\webdriver\\edge\\__init__.py',
   'PYMODULE'),
  ('selenium.webdriver.edge.webdriver',
   'C:\\Users\\kvn\\AppData\\Local\\Programs\\Python\\Python310\\lib\\site-packages\\selenium\\webdriver\\edge\\webdriver.py',
   'PYMODULE'),
  ('selenium.webdriver.edge.service',
   'C:\\Users\\kvn\\AppData\\Local\\Programs\\Python\\Python310\\lib\\site-packages\\selenium\\webdriver\\edge\\service.py',
   'PYMODULE'),
  ('selenium.webdriver.chromium.webdriver',
   'C:\\Users\\kvn\\AppData\\Local\\Programs\\Python\\Python310\\lib\\site-packages\\selenium\\webdriver\\chromium\\webdriver.py',
   'PYMODULE'),
  ('selenium.webdriver.chromium.remote_connection',
   'C:\\Users\\kvn\\AppData\\Local\\Programs\\Python\\Python310\\lib\\site-packages\\selenium\\webdriver\\chromium\\remote_connection.py',
   'PYMODULE'),
  ('selenium.webdriver.ie.options',
   'C:\\Users\\kvn\\AppData\\Local\\Programs\\Python\\Python310\\lib\\site-packages\\selenium\\webdriver\\ie\\options.py',
   'PYMODULE'),
  ('selenium.webdriver.ie',
   'C:\\Users\\kvn\\AppData\\Local\\Programs\\Python\\Python310\\lib\\site-packages\\selenium\\webdriver\\ie\\__init__.py',
   'PYMODULE'),
  ('selenium.webdriver.ie.webdriver',
   'C:\\Users\\kvn\\AppData\\Local\\Programs\\Python\\Python310\\lib\\site-packages\\selenium\\webdriver\\ie\\webdriver.py',
   'PYMODULE'),
  ('selenium.webdriver.ie.service',
   'C:\\Users\\kvn\\AppData\\Local\\Programs\\Python\\Python310\\lib\\site-packages\\selenium\\webdriver\\ie\\service.py',
   'PYMODULE'),
  ('selenium.webdriver.chrome.webdriver',
   'C:\\Users\\kvn\\AppData\\Local\\Programs\\Python\\Python310\\lib\\site-packages\\selenium\\webdriver\\chrome\\webdriver.py',
   'PYMODULE'),
  ('selenium.webdriver.chrome.service',
   'C:\\Users\\kvn\\AppData\\Local\\Programs\\Python\\Python310\\lib\\site-packages\\selenium\\webdriver\\chrome\\service.py',
   'PYMODULE'),
  ('selenium.webdriver.firefox.options',
   'C:\\Users\\kvn\\AppData\\Local\\Programs\\Python\\Python310\\lib\\site-packages\\selenium\\webdriver\\firefox\\options.py',
   'PYMODULE'),
  ('selenium.webdriver.firefox',
   'C:\\Users\\kvn\\AppData\\Local\\Programs\\Python\\Python310\\lib\\site-packages\\selenium\\webdriver\\firefox\\__init__.py',
   'PYMODULE'),
  ('selenium.webdriver.firefox.firefox_binary',
   'C:\\Users\\kvn\\AppData\\Local\\Programs\\Python\\Python310\\lib\\site-packages\\selenium\\webdriver\\firefox\\firefox_binary.py',
   'PYMODULE'),
  ('selenium.webdriver.firefox.firefox_profile',
   'C:\\Users\\kvn\\AppData\\Local\\Programs\\Python\\Python310\\lib\\site-packages\\selenium\\webdriver\\firefox\\firefox_profile.py',
   'PYMODULE'),
  ('xml.dom.minidom',
   'C:\\Users\\kvn\\AppData\\Local\\Programs\\Python\\Python310\\lib\\xml\\dom\\minidom.py',
   'PYMODULE'),
  ('xml.dom.pulldom',
   'C:\\Users\\kvn\\AppData\\Local\\Programs\\Python\\Python310\\lib\\xml\\dom\\pulldom.py',
   'PYMODULE'),
  ('xml.dom.expatbuilder',
   'C:\\Users\\kvn\\AppData\\Local\\Programs\\Python\\Python310\\lib\\xml\\dom\\expatbuilder.py',
   'PYMODULE'),
  ('xml.dom.NodeFilter',
   'C:\\Users\\kvn\\AppData\\Local\\Programs\\Python\\Python310\\lib\\xml\\dom\\NodeFilter.py',
   'PYMODULE'),
  ('xml.dom.xmlbuilder',
   'C:\\Users\\kvn\\AppData\\Local\\Programs\\Python\\Python310\\lib\\xml\\dom\\xmlbuilder.py',
   'PYMODULE'),
  ('xml.dom.minicompat',
   'C:\\Users\\kvn\\AppData\\Local\\Programs\\Python\\Python310\\lib\\xml\\dom\\minicompat.py',
   'PYMODULE'),
  ('xml.dom.domreg',
   'C:\\Users\\kvn\\AppData\\Local\\Programs\\Python\\Python310\\lib\\xml\\dom\\domreg.py',
   'PYMODULE'),
  ('xml.dom',
   'C:\\Users\\kvn\\AppData\\Local\\Programs\\Python\\Python310\\lib\\xml\\dom\\__init__.py',
   'PYMODULE'),
  ('selenium.webdriver.firefox.webdriver',
   'C:\\Users\\kvn\\AppData\\Local\\Programs\\Python\\Python310\\lib\\site-packages\\selenium\\webdriver\\firefox\\webdriver.py',
   'PYMODULE'),
  ('selenium.webdriver.firefox.service',
   'C:\\Users\\kvn\\AppData\\Local\\Programs\\Python\\Python310\\lib\\site-packages\\selenium\\webdriver\\firefox\\service.py',
   'PYMODULE'),
  ('selenium.webdriver.firefox.remote_connection',
   'C:\\Users\\kvn\\AppData\\Local\\Programs\\Python\\Python310\\lib\\site-packages\\selenium\\webdriver\\firefox\\remote_connection.py',
   'PYMODULE'),
  ('selenium',
   'C:\\Users\\kvn\\AppData\\Local\\Programs\\Python\\Python310\\lib\\site-packages\\selenium\\__init__.py',
   'PYMODULE'),
  ('selenium.webdriver.support.ui',
   'C:\\Users\\kvn\\AppData\\Local\\Programs\\Python\\Python310\\lib\\site-packages\\selenium\\webdriver\\support\\ui.py',
   'PYMODULE'),
  ('selenium.webdriver.support.wait',
   'C:\\Users\\kvn\\AppData\\Local\\Programs\\Python\\Python310\\lib\\site-packages\\selenium\\webdriver\\support\\wait.py',
   'PYMODULE'),
  ('selenium.webdriver.support.select',
   'C:\\Users\\kvn\\AppData\\Local\\Programs\\Python\\Python310\\lib\\site-packages\\selenium\\webdriver\\support\\select.py',
   'PYMODULE'),
  ('selenium.webdriver.support.expected_conditions',
   'C:\\Users\\kvn\\AppData\\Local\\Programs\\Python\\Python310\\lib\\site-packages\\selenium\\webdriver\\support\\expected_conditions.py',
   'PYMODULE'),
  ('selenium.webdriver.support',
   'C:\\Users\\kvn\\AppData\\Local\\Programs\\Python\\Python310\\lib\\site-packages\\selenium\\webdriver\\support\\__init__.py',
   'PYMODULE'),
  ('selenium.webdriver.remote.webdriver',
   'C:\\Users\\kvn\\AppData\\Local\\Programs\\Python\\Python310\\lib\\site-packages\\selenium\\webdriver\\remote\\webdriver.py',
   'PYMODULE'),
  ('selenium.webdriver.support.relative_locator',
   'C:\\Users\\kvn\\AppData\\Local\\Programs\\Python\\Python310\\lib\\site-packages\\selenium\\webdriver\\support\\relative_locator.py',
   'PYMODULE'),
  ('selenium.webdriver.common.html5.application_cache',
   'C:\\Users\\kvn\\AppData\\Local\\Programs\\Python\\Python310\\lib\\site-packages\\selenium\\webdriver\\common\\html5\\application_cache.py',
   'PYMODULE'),
  ('selenium.webdriver.common.html5',
   'C:\\Users\\kvn\\AppData\\Local\\Programs\\Python\\Python310\\lib\\site-packages\\selenium\\webdriver\\common\\html5\\__init__.py',
   'PYMODULE'),
  ('selenium.webdriver.common.timeouts',
   'C:\\Users\\kvn\\AppData\\Local\\Programs\\Python\\Python310\\lib\\site-packages\\selenium\\webdriver\\common\\timeouts.py',
   'PYMODULE'),
  ('selenium.webdriver.common.print_page_options',
   'C:\\Users\\kvn\\AppData\\Local\\Programs\\Python\\Python310\\lib\\site-packages\\selenium\\webdriver\\common\\print_page_options.py',
   'PYMODULE'),
  ('selenium.webdriver.remote.switch_to',
   'C:\\Users\\kvn\\AppData\\Local\\Programs\\Python\\Python310\\lib\\site-packages\\selenium\\webdriver\\remote\\switch_to.py',
   'PYMODULE'),
  ('selenium.webdriver.common.alert',
   'C:\\Users\\kvn\\AppData\\Local\\Programs\\Python\\Python310\\lib\\site-packages\\selenium\\webdriver\\common\\alert.py',
   'PYMODULE'),
  ('selenium.webdriver.remote.script_key',
   'C:\\Users\\kvn\\AppData\\Local\\Programs\\Python\\Python310\\lib\\site-packages\\selenium\\webdriver\\remote\\script_key.py',
   'PYMODULE'),
  ('selenium.webdriver.remote.mobile',
   'C:\\Users\\kvn\\AppData\\Local\\Programs\\Python\\Python310\\lib\\site-packages\\selenium\\webdriver\\remote\\mobile.py',
   'PYMODULE'),
  ('selenium.webdriver.remote.bidi_connection',
   'C:\\Users\\kvn\\AppData\\Local\\Programs\\Python\\Python310\\lib\\site-packages\\selenium\\webdriver\\remote\\bidi_connection.py',
   'PYMODULE'),
  ('selenium.webdriver.common.by',
   'C:\\Users\\kvn\\AppData\\Local\\Programs\\Python\\Python310\\lib\\site-packages\\selenium\\webdriver\\common\\by.py',
   'PYMODULE'),
  ('_strptime',
   'C:\\Users\\kvn\\AppData\\Local\\Programs\\Python\\Python310\\lib\\_strptime.py',
   'PYMODULE'),
  ('datetime',
   'C:\\Users\\kvn\\AppData\\Local\\Programs\\Python\\Python310\\lib\\datetime.py',
   'PYMODULE'),
  ('json',
   'C:\\Users\\kvn\\AppData\\Local\\Programs\\Python\\Python310\\lib\\json\\__init__.py',
   'PYMODULE'),
  ('json.encoder',
   'C:\\Users\\kvn\\AppData\\Local\\Programs\\Python\\Python310\\lib\\json\\encoder.py',
   'PYMODULE'),
  ('json.decoder',
   'C:\\Users\\kvn\\AppData\\Local\\Programs\\Python\\Python310\\lib\\json\\decoder.py',
   'PYMODULE'),
  ('json.scanner',
   'C:\\Users\\kvn\\AppData\\Local\\Programs\\Python\\Python310\\lib\\json\\scanner.py',
   'PYMODULE')])
