('E:\\Tools Python\\bot-test\\build\\upload youtube new update\\upload youtube '
 'new update.pkg',
 {'BINARY': 1,
  'DATA': 1,
  'EXECUTABLE': 1,
  'EXTENSION': 1,
  'PYMODULE': 1,
  'PYSOURCE': 1,
  'PYZ': 0,
  'SPLASH': 1},
 [('PYZ-00.pyz',
   'E:\\Tools Python\\bot-test\\build\\upload youtube new update\\PYZ-00.pyz',
   'PYZ'),
  ('struct',
   'C:\\Users\\Admin\\AppData\\Local\\Programs\\Python\\Python310\\lib\\struct.pyo',
   'PYMODULE'),
  ('pyimod01_os_path',
   'C:\\Users\\Admin\\AppData\\Local\\Programs\\Python\\Python310\\lib\\site-packages\\PyInstaller\\loader\\pyimod01_os_path.pyc',
   'PYMODULE'),
  ('pyimod02_archive',
   'C:\\Users\\Admin\\AppData\\Local\\Programs\\Python\\Python310\\lib\\site-packages\\PyInstaller\\loader\\pyimod02_archive.pyc',
   'PYMODULE'),
  ('pyimod03_importers',
   'C:\\Users\\Admin\\AppData\\Local\\Programs\\Python\\Python310\\lib\\site-packages\\PyInstaller\\loader\\pyimod03_importers.pyc',
   'PYMODULE'),
  ('pyimod04_ctypes',
   'C:\\Users\\Admin\\AppData\\Local\\Programs\\Python\\Python310\\lib\\site-packages\\PyInstaller\\loader\\pyimod04_ctypes.pyc',
   'PYMODULE'),
  ('pyiboot01_bootstrap',
   'C:\\Users\\Admin\\AppData\\Local\\Programs\\Python\\Python310\\lib\\site-packages\\PyInstaller\\loader\\pyiboot01_bootstrap.py',
   'PYSOURCE'),
  ('pyi_rth_inspect',
   'C:\\Users\\Admin\\AppData\\Local\\Programs\\Python\\Python310\\Lib\\site-packages\\PyInstaller\\hooks\\rthooks\\pyi_rth_inspect.py',
   'PYSOURCE'),
  ('pyi_rth_subprocess',
   'C:\\Users\\Admin\\AppData\\Local\\Programs\\Python\\Python310\\Lib\\site-packages\\PyInstaller\\hooks\\rthooks\\pyi_rth_subprocess.py',
   'PYSOURCE'),
  ('pyi_rth_pkgutil',
   'C:\\Users\\Admin\\AppData\\Local\\Programs\\Python\\Python310\\Lib\\site-packages\\PyInstaller\\hooks\\rthooks\\pyi_rth_pkgutil.py',
   'PYSOURCE'),
  ('pyi_rth_multiprocessing',
   'C:\\Users\\Admin\\AppData\\Local\\Programs\\Python\\Python310\\Lib\\site-packages\\PyInstaller\\hooks\\rthooks\\pyi_rth_multiprocessing.py',
   'PYSOURCE'),
  ('upload youtube new update',
   'E:\\Tools Python\\bot-test\\upload youtube new update.py',
   'PYSOURCE'),
  ('VCRUNTIME140.dll',
   'C:\\Users\\Admin\\AppData\\Local\\Programs\\Python\\Python310\\VCRUNTIME140.dll',
   'BINARY'),
  ('python310.dll',
   'C:\\Users\\Admin\\AppData\\Local\\Programs\\Python\\Python310\\python310.dll',
   'BINARY'),
  ('_multiprocessing',
   'C:\\Users\\Admin\\AppData\\Local\\Programs\\Python\\Python310\\DLLs\\_multiprocessing.pyd',
   'EXTENSION'),
  ('pyexpat',
   'C:\\Users\\Admin\\AppData\\Local\\Programs\\Python\\Python310\\DLLs\\pyexpat.pyd',
   'EXTENSION'),
  ('_ssl',
   'C:\\Users\\Admin\\AppData\\Local\\Programs\\Python\\Python310\\DLLs\\_ssl.pyd',
   'EXTENSION'),
  ('_hashlib',
   'C:\\Users\\Admin\\AppData\\Local\\Programs\\Python\\Python310\\DLLs\\_hashlib.pyd',
   'EXTENSION'),
  ('unicodedata',
   'C:\\Users\\Admin\\AppData\\Local\\Programs\\Python\\Python310\\DLLs\\unicodedata.pyd',
   'EXTENSION'),
  ('_decimal',
   'C:\\Users\\Admin\\AppData\\Local\\Programs\\Python\\Python310\\DLLs\\_decimal.pyd',
   'EXTENSION'),
  ('_socket',
   'C:\\Users\\Admin\\AppData\\Local\\Programs\\Python\\Python310\\DLLs\\_socket.pyd',
   'EXTENSION'),
  ('select',
   'C:\\Users\\Admin\\AppData\\Local\\Programs\\Python\\Python310\\DLLs\\select.pyd',
   'EXTENSION'),
  ('_lzma',
   'C:\\Users\\Admin\\AppData\\Local\\Programs\\Python\\Python310\\DLLs\\_lzma.pyd',
   'EXTENSION'),
  ('_bz2',
   'C:\\Users\\Admin\\AppData\\Local\\Programs\\Python\\Python310\\DLLs\\_bz2.pyd',
   'EXTENSION'),
  ('_ctypes',
   'C:\\Users\\Admin\\AppData\\Local\\Programs\\Python\\Python310\\DLLs\\_ctypes.pyd',
   'EXTENSION'),
  ('_queue',
   'C:\\Users\\Admin\\AppData\\Local\\Programs\\Python\\Python310\\DLLs\\_queue.pyd',
   'EXTENSION'),
  ('_overlapped',
   'C:\\Users\\Admin\\AppData\\Local\\Programs\\Python\\Python310\\DLLs\\_overlapped.pyd',
   'EXTENSION'),
  ('_asyncio',
   'C:\\Users\\Admin\\AppData\\Local\\Programs\\Python\\Python310\\DLLs\\_asyncio.pyd',
   'EXTENSION'),
  ('_cffi_backend',
   'C:\\Users\\Admin\\AppData\\Local\\Programs\\Python\\Python310\\lib\\site-packages\\_cffi_backend.cp310-win_amd64.pyd',
   'EXTENSION'),
  ('cryptography.hazmat.bindings._openssl',
   'C:\\Users\\Admin\\AppData\\Local\\Programs\\Python\\Python310\\lib\\site-packages\\cryptography\\hazmat\\bindings\\_openssl.pyd',
   'EXTENSION'),
  ('cryptography.hazmat.bindings._rust',
   'C:\\Users\\Admin\\AppData\\Local\\Programs\\Python\\Python310\\lib\\site-packages\\cryptography\\hazmat\\bindings\\_rust.pyd',
   'EXTENSION'),
  ('_uuid',
   'C:\\Users\\Admin\\AppData\\Local\\Programs\\Python\\Python310\\DLLs\\_uuid.pyd',
   'EXTENSION'),
  ('libcrypto-1_1.dll',
   'C:\\Users\\Admin\\AppData\\Local\\Programs\\Python\\Python310\\DLLs\\libcrypto-1_1.dll',
   'BINARY'),
  ('libssl-1_1.dll',
   'C:\\Users\\Admin\\AppData\\Local\\Programs\\Python\\Python310\\DLLs\\libssl-1_1.dll',
   'BINARY'),
  ('libffi-7.dll',
   'C:\\Users\\Admin\\AppData\\Local\\Programs\\Python\\Python310\\DLLs\\libffi-7.dll',
   'BINARY'),
  ('python3.dll',
   'C:\\Users\\Admin\\AppData\\Local\\Programs\\Python\\Python310\\python3.dll',
   'BINARY'),
  ('base_library.zip',
   'E:\\Tools Python\\bot-test\\build\\upload youtube new '
   'update\\base_library.zip',
   'DATA'),
  ('selenium\\webdriver\\common\\mutation-listener.js',
   'C:\\Users\\Admin\\AppData\\Local\\Programs\\Python\\Python310\\lib\\site-packages\\selenium\\webdriver\\common\\mutation-listener.js',
   'DATA'),
  ('cryptography-36.0.1.dist-info\\LICENSE.BSD',
   'c:\\users\\admin\\appdata\\local\\programs\\python\\python310\\lib\\site-packages\\cryptography-36.0.1.dist-info\\LICENSE.BSD',
   'DATA'),
  ('selenium\\webdriver\\common\\devtools\\v98\\py.typed',
   'C:\\Users\\Admin\\AppData\\Local\\Programs\\Python\\Python310\\lib\\site-packages\\selenium\\webdriver\\common\\devtools\\v98\\py.typed',
   'DATA'),
  ('cryptography-36.0.1.dist-info\\METADATA',
   'c:\\users\\admin\\appdata\\local\\programs\\python\\python310\\lib\\site-packages\\cryptography-36.0.1.dist-info\\METADATA',
   'DATA'),
  ('selenium\\webdriver\\common\\devtools\\v97\\py.typed',
   'C:\\Users\\Admin\\AppData\\Local\\Programs\\Python\\Python310\\lib\\site-packages\\selenium\\webdriver\\common\\devtools\\v97\\py.typed',
   'DATA'),
  ('cryptography-36.0.1.dist-info\\INSTALLER',
   'c:\\users\\admin\\appdata\\local\\programs\\python\\python310\\lib\\site-packages\\cryptography-36.0.1.dist-info\\INSTALLER',
   'DATA'),
  ('selenium\\webdriver\\remote\\findElements.js',
   'C:\\Users\\Admin\\AppData\\Local\\Programs\\Python\\Python310\\lib\\site-packages\\selenium\\webdriver\\remote\\findElements.js',
   'DATA'),
  ('selenium\\webdriver\\common\\devtools\\v99\\py.typed',
   'C:\\Users\\Admin\\AppData\\Local\\Programs\\Python\\Python310\\lib\\site-packages\\selenium\\webdriver\\common\\devtools\\v99\\py.typed',
   'DATA'),
  ('cryptography-36.0.1.dist-info\\WHEEL',
   'c:\\users\\admin\\appdata\\local\\programs\\python\\python310\\lib\\site-packages\\cryptography-36.0.1.dist-info\\WHEEL',
   'DATA'),
  ('certifi\\cacert.pem',
   'C:\\Users\\Admin\\AppData\\Local\\Programs\\Python\\Python310\\lib\\site-packages\\certifi\\cacert.pem',
   'DATA'),
  ('selenium\\py.typed',
   'C:\\Users\\Admin\\AppData\\Local\\Programs\\Python\\Python310\\lib\\site-packages\\selenium\\py.typed',
   'DATA'),
  ('cryptography-36.0.1.dist-info\\LICENSE.PSF',
   'c:\\users\\admin\\appdata\\local\\programs\\python\\python310\\lib\\site-packages\\cryptography-36.0.1.dist-info\\LICENSE.PSF',
   'DATA'),
  ('cryptography-36.0.1.dist-info\\LICENSE',
   'c:\\users\\admin\\appdata\\local\\programs\\python\\python310\\lib\\site-packages\\cryptography-36.0.1.dist-info\\LICENSE',
   'DATA'),
  ('selenium\\webdriver\\remote\\isDisplayed.js',
   'C:\\Users\\Admin\\AppData\\Local\\Programs\\Python\\Python310\\lib\\site-packages\\selenium\\webdriver\\remote\\isDisplayed.js',
   'DATA'),
  ('cryptography-36.0.1.dist-info\\LICENSE.APACHE',
   'c:\\users\\admin\\appdata\\local\\programs\\python\\python310\\lib\\site-packages\\cryptography-36.0.1.dist-info\\LICENSE.APACHE',
   'DATA'),
  ('selenium\\webdriver\\firefox\\webdriver_prefs.json',
   'C:\\Users\\Admin\\AppData\\Local\\Programs\\Python\\Python310\\lib\\site-packages\\selenium\\webdriver\\firefox\\webdriver_prefs.json',
   'DATA'),
  ('cryptography-36.0.1.dist-info\\RECORD',
   'c:\\users\\admin\\appdata\\local\\programs\\python\\python310\\lib\\site-packages\\cryptography-36.0.1.dist-info\\RECORD',
   'DATA'),
  ('cryptography-36.0.1.dist-info\\top_level.txt',
   'c:\\users\\admin\\appdata\\local\\programs\\python\\python310\\lib\\site-packages\\cryptography-36.0.1.dist-info\\top_level.txt',
   'DATA'),
  ('selenium\\webdriver\\common\\devtools\\v85\\py.typed',
   'C:\\Users\\Admin\\AppData\\Local\\Programs\\Python\\Python310\\lib\\site-packages\\selenium\\webdriver\\common\\devtools\\v85\\py.typed',
   'DATA'),
  ('selenium\\webdriver\\remote\\getAttribute.js',
   'C:\\Users\\Admin\\AppData\\Local\\Programs\\Python\\Python310\\lib\\site-packages\\selenium\\webdriver\\remote\\getAttribute.js',
   'DATA')],
 False,
 False,
 False,
 [],
 None,
 None,
 None)
